 {     "playerTableStats" : [{"name":"Alejandro Gomez","firstName":"Alejandro","lastName":"Gomez","playerId":22546,"height":164,"weight":60,"age":29,"isManOfTheMatch":false,"isActive":true,"isOpta":true,"playedPositions":"-FW-MC-ML-","positionText":"Midfielder","playedPositionsShort":"M(CL),FW","teamId":300,"teamName":"Atalanta","seasonId":6461,"seasonName":"2016/2017","tournamentId":5,"tournamentRegionId":108,"tournamentRegionCode":"it","regionCode":"ar","tournamentName":"Serie A","tournamentShortName":"ISA","rating":7.6915999999999993,"ranking":11,"apps":25,"subOn":0,"minsPlayed":2150,"manOfTheMatch":7,"yellowCard":4.0,"redCard":0.0,"goal":9,"assistTotal":5,"shotsPerGame":3.36,"aerialWonPerGame":0.12,"passSuccess":80.91697645600992},{"name":"Gareth Bale","firstName":"Gareth","lastName":"Bale","playerId":13812,"height":183,"weight":74,"age":27,"isManOfTheMatch":false,"isActive":true,"isOpta":true,"playedPositions":"-FW-MC-ML-MR-","positionText":"Forward","playedPositionsShort":"M(CLR),FW","teamId":52,"teamName":"Real Madrid","seasonId":6436,"seasonName":"2016/2017","tournamentId":4,"tournamentRegionId":206,"tournamentRegionCode":"es","regionCode":"gb-wls","tournamentName":"La Liga","tournamentShortName":"SLL","rating":7.6915384615384612,"ranking":12,"apps":13,"subOn":2,"minsPlayed":989,"manOfTheMatch":3,"yellowCard":2.0,"redCard":0.0,"goal":6,"assistTotal":2,"shotsPerGame":3.5384615384615383,"aerialWonPerGame":2.2307692307692308,"passSuccess":78.960396039603964},{"name":"Alexandre Lacazette","firstName":"Alexandre","lastName":"Lacazette","playerId":73078,"height":175,"weight":73,"age":25,"isManOfTheMatch":false,"isActive":true,"isOpta":true,"playedPositions":"-FW-ML-MR-","positionText":"Forward","playedPositionsShort":"M(LR),FW","teamId":228,"teamName":"Lyon","seasonId":6318,"seasonName":"2016/2017","tournamentId":22,"tournamentRegionId":74,"tournamentRegionCode":"fr","regionCode":"fr","tournamentName":"Ligue 1","tournamentShortName":"FL1","rating":7.6552380952380963,"ranking":13,"apps":21,"subOn":1,"minsPlayed":1737,"manOfTheMatch":5,"yellowCard":3.0,"redCard":0.0,"goal":21,"assistTotal":2,"shotsPerGame":3.2380952380952381,"aerialWonPerGame":0.95238095238095233,"passSuccess":77.38287560581584},{"name":"Andrea Belotti","firstName":"Andrea","lastName":"Belotti","playerId":112272,"height":181,"weight":72,"age":23,"isManOfTheMatch":false,"isActive":true,"isOpta":true,"playedPositions":"-FW-","positionText":"Forward","playedPositionsShort":"FW","teamId":72,"teamName":"Torino","seasonId":6461,"seasonName":"2016/2017","tournamentId":5,"tournamentRegionId":108,"tournamentRegionCode":"it","regionCode":"it","tournamentName":"Serie A","tournamentShortName":"ISA","rating":7.6377272727272745,"ranking":14,"apps":22,"subOn":1,"minsPlayed":1901,"manOfTheMatch":5,"yellowCard":5.0,"redCard":0.0,"goal":17,"assistTotal":3,"shotsPerGame":3.2272727272727271,"aerialWonPerGame":2.1363636363636362,"passSuccess":75.946547884187083},{"name":"Ryad Boudebouz","firstName":"Ryad","lastName":"Boudebouz","playerId":67958,"height":177,"weight":74,"age":27,"isManOfTheMatch":false,"isActive":true,"isOpta":true,"playedPositions":"-FW-MC-MR-","positionText":"Midfielder","playedPositionsShort":"M(CR),FW","teamId":311,"teamName":"Montpellier","seasonId":6318,"seasonName":"2016/2017","tournamentId":22,"tournamentRegionId":74,"tournamentRegionCode":"fr","regionCode":"dz","tournamentName":"Ligue 1","tournamentShortName":"FL1","rating":7.6309523809523814,"ranking":15,"apps":21,"subOn":0,"minsPlayed":1862,"manOfTheMatch":5,"yellowCard":2.0,"redCard":0.0,"goal":8,"assistTotal":6,"shotsPerGame":2.0,"aerialWonPerGame":1.1904761904761905,"passSuccess":77.777777777777786},{"name":"Alex Sandro","firstName":"Alex Sandro","lastName":"Lobo Silva","playerId":100995,"height":181,"weight":81,"age":26,"isManOfTheMatch":false,"isActive":true,"isOpta":true,"playedPositions":"-DL-ML-","positionText":"Defender","playedPositionsShort":"D(L),M(L)","teamId":87,"teamName":"Juventus","seasonId":6461,"seasonName":"2016/2017","tournamentId":5,"tournamentRegionId":108,"tournamentRegionCode":"it","regionCode":"br","tournamentName":"Serie A","tournamentShortName":"ISA","rating":7.6171428571428592,"ranking":16,"apps":21,"subOn":1,"minsPlayed":1850,"manOfTheMatch":2,"yellowCard":5.0,"redCard":0.0,"goal":1,"assistTotal":4,"shotsPerGame":0.7142857142857143,"aerialWonPerGame":1.4761904761904763,"passSuccess":84.561752988047814},{"name":"Diego Costa","firstName":"Diego","lastName":"Da Silva Costa","playerId":24248,"height":188,"weight":85,"age":28,"isManOfTheMatch":false,"isActive":true,"isOpta":true,"playedPositions":"-FW-","positionText":"Forward","playedPositionsShort":"FW","teamId":15,"teamName":"Chelsea","seasonId":6335,"seasonName":"2016/2017","tournamentId":2,"tournamentRegionId":252,"tournamentRegionCode":"gb-eng","regionCode":"es","tournamentName":"Premier League","tournamentShortName":"EPL","rating":7.6121739130434785,"ranking":17,"apps":23,"subOn":0,"minsPlayed":2038,"manOfTheMatch":4,"yellowCard":5.0,"redCard":0.0,"goal":15,"assistTotal":5,"shotsPerGame":3.0434782608695654,"aerialWonPerGame":1.3478260869565217,"passSuccess":74.926253687315636},{"name":"Dries Mertens","firstName":"Dries","lastName":"Mertens","playerId":23100,"height":169,"weight":61,"age":29,"isManOfTheMatch":false,"isActive":true,"isOpta":true,"playedPositions":"-AMC-AML-AMR-FW-","positionText":"Midfielder","playedPositionsShort":"AM(CLR),FW","teamId":276,"teamName":"Napoli","seasonId":6461,"seasonName":"2016/2017","tournamentId":5,"tournamentRegionId":108,"tournamentRegionCode":"it","regionCode":"be","tournamentName":"Serie A","tournamentShortName":"ISA","rating":7.6068181818181815,"ranking":18,"apps":22,"subOn":6,"minsPlayed":1533,"manOfTheMatch":8,"yellowCard":6.0,"redCard":0.0,"goal":16,"assistTotal":4,"shotsPerGame":4.0,"aerialWonPerGame":0.13636363636363635,"passSuccess":75.614754098360663},{"name":"Emil Forsberg","firstName":"Emil","lastName":"Forsberg","playerId":141716,"height":179,"weight":78,"age":25,"isManOfTheMatch":false,"isActive":true,"isOpta":true,"playedPositions":"-AMC-AML-","positionText":"Forward","playedPositionsShort":"AM(CL)","teamId":7614,"teamName":"RasenBallsport Leipzig","seasonId":6392,"seasonName":"2016/2017","tournamentId":3,"tournamentRegionId":81,"tournamentRegionCode":"de","regionCode":"se","tournamentName":"Bundesliga","tournamentShortName":"GB","rating":7.6047058823529428,"ranking":19,"apps":17,"subOn":3,"minsPlayed":1256,"manOfTheMatch":6,"yellowCard":1.0,"redCard":1.0,"goal":6,"assistTotal":9,"shotsPerGame":1.7647058823529411,"aerialWonPerGame":0.6470588235294118,"passSuccess":77.22567287784679},{"name":"Cristiano Ronaldo","firstName":"Cristiano Ronaldo","lastName":"dos Santos Aveiro","playerId":5583,"height":185,"weight":80,"age":32,"isManOfTheMatch":false,"isActive":true,"isOpta":true,"playedPositions":"-FW-ML-","positionText":"Forward","playedPositionsShort":"M(L),FW","teamId":52,"teamName":"Real Madrid","seasonId":6436,"seasonName":"2016/2017","tournamentId":4,"tournamentRegionId":206,"tournamentRegionCode":"es","regionCode":"pt","tournamentName":"La Liga","tournamentShortName":"SLL","rating":7.5994444444444458,"ranking":20,"apps":18,"subOn":0,"minsPlayed":1571,"manOfTheMatch":3,"yellowCard":3.0,"redCard":0.0,"goal":15,"assistTotal":3,"shotsPerGame":5.5555555555555554,"aerialWonPerGame":0.94444444444444442,"passSuccess":80.991735537190081}], "paging" : {  "currentPage" : 2,  "totalPages" : 145,  "resultsPerPage" : 10,  "totalResults" : 1448,  "firstRecordIndex" : 11,  "lastRecordIndex" : 20 }, "statColumns" : ["apps","subOn","minsPlayed","goal","assistTotal","yellowCard","redCard","shotsPerGame","passSuccess","aerialWonPerGame","manOfTheMatch"]} 