 {     "playerTableStats" : [{"name":"Marek Hamsik","firstName":"Marek","lastName":"Hamsik","playerId":13475,"height":183,"weight":79,"age":29,"isManOfTheMatch":false,"isActive":true,"isOpta":true,"playedPositions":"-AMC-","positionText":"Midfielder","playedPositionsShort":"AM(C)","teamId":276,"teamName":"Napoli","seasonId":6461,"seasonName":"2016/2017","tournamentId":5,"tournamentRegionId":108,"tournamentRegionCode":"it","regionCode":"sk","tournamentName":"Serie A","tournamentShortName":"ISA","rating":7.4075999999999995,"ranking":61,"apps":25,"subOn":1,"minsPlayed":2051,"manOfTheMatch":3,"yellowCard":1.0,"redCard":0.0,"goal":10,"assistTotal":7,"shotsPerGame":2.28,"aerialWonPerGame":0.68,"passSuccess":88.828740157480311},{"name":"Pierre-Emerick Aubameyang","firstName":"Pierre-Emerick","lastName":"Aubameyang","playerId":44120,"height":187,"weight":80,"age":27,"isManOfTheMatch":false,"isActive":true,"isOpta":true,"playedPositions":"-FW-ML-MR-","positionText":"Forward","playedPositionsShort":"M(LR),FW","teamId":44,"teamName":"Borussia Dortmund","seasonId":6392,"seasonName":"2016/2017","tournamentId":3,"tournamentRegionId":81,"tournamentRegionCode":"de","regionCode":"ga","tournamentName":"Bundesliga","tournamentShortName":"GB","rating":7.4068421052631574,"ranking":62,"apps":19,"subOn":0,"minsPlayed":1687,"manOfTheMatch":3,"yellowCard":2.0,"redCard":0.0,"goal":17,"assistTotal":1,"shotsPerGame":3.5263157894736841,"aerialWonPerGame":1.0,"passSuccess":73.780487804878049},{"name":"Sergej Milinkovic-Savic","firstName":"Sergej","lastName":"Milinkovic-Savic","playerId":288767,"height":191,"weight":76,"age":21,"isManOfTheMatch":false,"isActive":true,"isOpta":true,"playedPositions":"-AMC-","positionText":"Midfielder","playedPositionsShort":"AM(C)","teamId":77,"teamName":"Lazio","seasonId":6461,"seasonName":"2016/2017","tournamentId":5,"tournamentRegionId":108,"tournamentRegionCode":"it","regionCode":"rs","tournamentName":"Serie A","tournamentShortName":"ISA","rating":7.4030434782608676,"ranking":63,"apps":23,"subOn":2,"minsPlayed":1858,"manOfTheMatch":2,"yellowCard":4.0,"redCard":0.0,"goal":4,"assistTotal":3,"shotsPerGame":2.0869565217391304,"aerialWonPerGame":4.7826086956521738,"passSuccess":71.492204899777278},{"name":"Ousmane Dembélé","firstName":"Ousmane","lastName":"Dembélé","playerId":299513,"height":178,"weight":67,"age":19,"isManOfTheMatch":false,"isActive":true,"isOpta":true,"playedPositions":"-AMC-AML-AMR-","positionText":"Forward","playedPositionsShort":"AM(CLR)","teamId":44,"teamName":"Borussia Dortmund","seasonId":6392,"seasonName":"2016/2017","tournamentId":3,"tournamentRegionId":81,"tournamentRegionCode":"de","regionCode":"fr","tournamentName":"Bundesliga","tournamentShortName":"GB","rating":7.4009999999999989,"ranking":64,"apps":20,"subOn":7,"minsPlayed":1224,"manOfTheMatch":2,"yellowCard":4.0,"redCard":0.0,"goal":5,"assistTotal":8,"shotsPerGame":1.35,"aerialWonPerGame":0.15,"passSuccess":64.583333333333343},{"name":"Luka Modric","firstName":"Luka","lastName":"Modric","playerId":20874,"height":174,"weight":65,"age":31,"isManOfTheMatch":false,"isActive":true,"isOpta":true,"playedPositions":"-MC-","positionText":"Midfielder","playedPositionsShort":"M(C)","teamId":52,"teamName":"Real Madrid","seasonId":6436,"seasonName":"2016/2017","tournamentId":4,"tournamentRegionId":206,"tournamentRegionCode":"es","regionCode":"hr","tournamentName":"La Liga","tournamentShortName":"SLL","rating":7.393076923076924,"ranking":65,"apps":13,"subOn":1,"minsPlayed":1034,"manOfTheMatch":2,"yellowCard":1.0,"redCard":0.0,"goal":1,"assistTotal":2,"shotsPerGame":0.92307692307692313,"aerialWonPerGame":0.30769230769230771,"passSuccess":89.370078740157481},{"name":"Arjen Robben","firstName":"Arjen","lastName":"Robben","playerId":4173,"height":180,"weight":80,"age":33,"isManOfTheMatch":false,"isActive":true,"isOpta":true,"playedPositions":"-FW-MC-ML-MR-","positionText":"Midfielder","playedPositionsShort":"M(CLR),FW","teamId":37,"teamName":"Bayern Munich","seasonId":6392,"seasonName":"2016/2017","tournamentId":3,"tournamentRegionId":81,"tournamentRegionCode":"de","regionCode":"nl","tournamentName":"Bundesliga","tournamentShortName":"GB","rating":7.3906666666666672,"ranking":66,"apps":15,"subOn":3,"minsPlayed":966,"manOfTheMatch":1,"yellowCard":0.0,"redCard":0.0,"goal":7,"assistTotal":3,"shotsPerGame":2.4666666666666668,"aerialWonPerGame":0.33333333333333331,"passSuccess":78.991596638655466},{"name":"Laurent Koscielny","firstName":"Laurent","lastName":"Koscielny","playerId":30051,"height":186,"weight":75,"age":31,"isManOfTheMatch":false,"isActive":true,"isOpta":true,"playedPositions":"-DC-","positionText":"Defender","playedPositionsShort":"D(C)","teamId":13,"teamName":"Arsenal","seasonId":6335,"seasonName":"2016/2017","tournamentId":2,"tournamentRegionId":252,"tournamentRegionCode":"gb-eng","regionCode":"fr","tournamentName":"Premier League","tournamentShortName":"EPL","rating":7.3891666666666671,"ranking":67,"apps":24,"subOn":0,"minsPlayed":2134,"manOfTheMatch":0,"yellowCard":3.0,"redCard":0.0,"goal":2,"assistTotal":0,"shotsPerGame":0.33333333333333331,"aerialWonPerGame":3.6666666666666665,"passSuccess":87.741935483870975},{"name":"Lucas Moura","firstName":"Lucas","lastName":"Rodrigues Moura da Silva","playerId":92508,"height":172,"weight":72,"age":24,"isManOfTheMatch":false,"isActive":true,"isOpta":true,"playedPositions":"-AMC-AML-AMR-","positionText":"Forward","playedPositionsShort":"AM(CLR)","teamId":304,"teamName":"Paris Saint Germain","seasonId":6318,"seasonName":"2016/2017","tournamentId":22,"tournamentRegionId":74,"tournamentRegionCode":"fr","regionCode":"br","tournamentName":"Ligue 1","tournamentShortName":"FL1","rating":7.3888461538461545,"ranking":68,"apps":26,"subOn":3,"minsPlayed":1933,"manOfTheMatch":2,"yellowCard":0.0,"redCard":0.0,"goal":8,"assistTotal":3,"shotsPerGame":1.9230769230769231,"aerialWonPerGame":0.69230769230769229,"passSuccess":82.224428997020851},{"name":"Marcelo Brozovic","firstName":"Marcelo","lastName":"Brozovic","playerId":87449,"height":180,"weight":65,"age":24,"isManOfTheMatch":false,"isActive":true,"isOpta":true,"playedPositions":"-MC-MR-","positionText":"Midfielder","playedPositionsShort":"M(CR)","teamId":75,"teamName":"Inter","seasonId":6461,"seasonName":"2016/2017","tournamentId":5,"tournamentRegionId":108,"tournamentRegionCode":"it","regionCode":"hr","tournamentName":"Serie A","tournamentShortName":"ISA","rating":7.3840000000000012,"ranking":69,"apps":15,"subOn":1,"minsPlayed":1205,"manOfTheMatch":1,"yellowCard":5.0,"redCard":0.0,"goal":3,"assistTotal":2,"shotsPerGame":1.8,"aerialWonPerGame":0.66666666666666663,"passSuccess":83.679245283018872},{"name":"Frederic Guilbert","firstName":"Frederic","lastName":"Guilbert","playerId":260493,"height":178,"weight":70,"age":22,"isManOfTheMatch":false,"isActive":true,"isOpta":true,"playedPositions":"-DC-DR-","positionText":"Defender","playedPositionsShort":"D(CR)","teamId":347,"teamName":"Caen","seasonId":6318,"seasonName":"2016/2017","tournamentId":22,"tournamentRegionId":74,"tournamentRegionCode":"fr","regionCode":"fr","tournamentName":"Ligue 1","tournamentShortName":"FL1","rating":7.374,"ranking":70,"apps":15,"subOn":0,"minsPlayed":1328,"manOfTheMatch":1,"yellowCard":2.0,"redCard":0.0,"goal":0,"assistTotal":1,"shotsPerGame":0.8666666666666667,"aerialWonPerGame":2.8,"passSuccess":70.615034168564918}], "paging" : {  "currentPage" : 7,  "totalPages" : 145,  "resultsPerPage" : 10,  "totalResults" : 1448,  "firstRecordIndex" : 61,  "lastRecordIndex" : 70 }, "statColumns" : ["apps","subOn","minsPlayed","goal","assistTotal","yellowCard","redCard","shotsPerGame","passSuccess","aerialWonPerGame","manOfTheMatch"]} 