 {     "playerTableStats" : [{"name":"Ander Herrera","firstName":"Ander","lastName":"Herrera","playerId":71174,"height":182,"weight":70,"age":27,"isManOfTheMatch":false,"isActive":true,"isOpta":true,"playedPositions":"-MC-","positionText":"Midfielder","playedPositionsShort":"M(C)","teamId":32,"teamName":"Manchester United","seasonId":6335,"seasonName":"2016/2017","tournamentId":2,"tournamentRegionId":252,"tournamentRegionCode":"gb-eng","regionCode":"es","tournamentName":"Premier League","tournamentShortName":"EPL","rating":7.4381818181818184,"ranking":51,"apps":22,"subOn":2,"minsPlayed":1819,"manOfTheMatch":4,"yellowCard":4.0,"redCard":1.0,"goal":0,"assistTotal":3,"shotsPerGame":1.3636363636363635,"aerialWonPerGame":1.0454545454545454,"passSuccess":88.124238733252142},{"name":"Emerson","firstName":"Emerson","lastName":"Palmieri dos Santos","playerId":101955,"height":176,"weight":63,"age":22,"isManOfTheMatch":false,"isActive":true,"isOpta":true,"playedPositions":"-DL-ML-","positionText":"Defender","playedPositionsShort":"D(L),M(L)","teamId":84,"teamName":"Roma","seasonId":6461,"seasonName":"2016/2017","tournamentId":5,"tournamentRegionId":108,"tournamentRegionCode":"it","regionCode":"br","tournamentName":"Serie A","tournamentShortName":"ISA","rating":7.4333333333333327,"ranking":52,"apps":18,"subOn":2,"minsPlayed":1418,"manOfTheMatch":0,"yellowCard":1.0,"redCard":0.0,"goal":0,"assistTotal":1,"shotsPerGame":0.55555555555555558,"aerialWonPerGame":1.2777777777777777,"passSuccess":87.019867549668874},{"name":"Sead Kolasinac","firstName":"Sead","lastName":"Kolasinac","playerId":110260,"height":183,"weight":85,"age":23,"isManOfTheMatch":false,"isActive":true,"isOpta":true,"playedPositions":"-DL-ML-","positionText":"Defender","playedPositionsShort":"D(L),M(L)","teamId":39,"teamName":"Schalke 04","seasonId":6392,"seasonName":"2016/2017","tournamentId":3,"tournamentRegionId":81,"tournamentRegionCode":"de","regionCode":"ba","tournamentName":"Bundesliga","tournamentShortName":"GB","rating":7.4317647058823528,"ranking":53,"apps":17,"subOn":1,"minsPlayed":1405,"manOfTheMatch":1,"yellowCard":4.0,"redCard":0.0,"goal":2,"assistTotal":4,"shotsPerGame":0.76470588235294112,"aerialWonPerGame":2.2941176470588234,"passSuccess":70.15384615384616},{"name":"Benjamin Hübner","firstName":"Benjamin","lastName":"Hübner","playerId":133346,"height":193,"weight":85,"age":27,"isManOfTheMatch":false,"isActive":true,"isOpta":true,"playedPositions":"-DC-","positionText":"Defender","playedPositionsShort":"D(C)","teamId":1211,"teamName":"Hoffenheim","seasonId":6392,"seasonName":"2016/2017","tournamentId":3,"tournamentRegionId":81,"tournamentRegionCode":"de","regionCode":"de","tournamentName":"Bundesliga","tournamentShortName":"GB","rating":7.4306666666666672,"ranking":54,"apps":15,"subOn":0,"minsPlayed":1291,"manOfTheMatch":1,"yellowCard":5.0,"redCard":0.0,"goal":0,"assistTotal":2,"shotsPerGame":0.33333333333333331,"aerialWonPerGame":2.5333333333333332,"passSuccess":85.928489042675892},{"name":"Marcos Alonso","firstName":"Marcos","lastName":"Alonso","playerId":84008,"height":188,"weight":81,"age":26,"isManOfTheMatch":false,"isActive":true,"isOpta":true,"playedPositions":"-DC-DL-ML-","positionText":"Defender","playedPositionsShort":"D(CL),M(L)","teamId":15,"teamName":"Chelsea","seasonId":6335,"seasonName":"2016/2017","tournamentId":2,"tournamentRegionId":252,"tournamentRegionCode":"gb-eng","regionCode":"es","tournamentName":"Premier League","tournamentShortName":"EPL","rating":7.427,"ranking":55,"apps":20,"subOn":1,"minsPlayed":1720,"manOfTheMatch":1,"yellowCard":2.0,"redCard":0.0,"goal":4,"assistTotal":2,"shotsPerGame":1.45,"aerialWonPerGame":2.4,"passSuccess":76.11044417767107},{"name":"Virgil van Dijk","firstName":"Virgil","lastName":"van Dijk","playerId":95408,"height":193,"weight":92,"age":25,"isManOfTheMatch":false,"isActive":true,"isOpta":true,"playedPositions":"-DC-","positionText":"Defender","playedPositionsShort":"D(C)","teamId":18,"teamName":"Southampton","seasonId":6335,"seasonName":"2016/2017","tournamentId":2,"tournamentRegionId":252,"tournamentRegionCode":"gb-eng","regionCode":"nl","tournamentName":"Premier League","tournamentShortName":"EPL","rating":7.4238095238095241,"ranking":56,"apps":21,"subOn":0,"minsPlayed":1854,"manOfTheMatch":3,"yellowCard":3.0,"redCard":1.0,"goal":1,"assistTotal":0,"shotsPerGame":0.80952380952380953,"aerialWonPerGame":4.666666666666667,"passSuccess":84.183673469387756},{"name":"Lorenzo Insigne","firstName":"Lorenzo","lastName":"Insigne","playerId":83390,"height":163,"weight":59,"age":25,"isManOfTheMatch":false,"isActive":true,"isOpta":true,"playedPositions":"-AMC-AML-FW-","positionText":"Forward","playedPositionsShort":"AM(CL),FW","teamId":276,"teamName":"Napoli","seasonId":6461,"seasonName":"2016/2017","tournamentId":5,"tournamentRegionId":108,"tournamentRegionCode":"it","regionCode":"it","tournamentName":"Serie A","tournamentShortName":"ISA","rating":7.4237500000000018,"ranking":57,"apps":24,"subOn":2,"minsPlayed":1818,"manOfTheMatch":4,"yellowCard":1.0,"redCard":0.0,"goal":8,"assistTotal":6,"shotsPerGame":3.7916666666666665,"aerialWonPerGame":0.0,"passSuccess":86.3536316947909},{"name":"Tiemoué Bakayoko","firstName":"Tiemoué","lastName":"Bakayoko","playerId":135211,"height":184,"weight":72,"age":22,"isManOfTheMatch":false,"isActive":true,"isOpta":true,"playedPositions":"-DMC-","positionText":"Midfielder","playedPositionsShort":"DMC","teamId":248,"teamName":"Monaco","seasonId":6318,"seasonName":"2016/2017","tournamentId":22,"tournamentRegionId":74,"tournamentRegionCode":"fr","regionCode":"fr","tournamentName":"Ligue 1","tournamentShortName":"FL1","rating":7.4190909090909081,"ranking":58,"apps":22,"subOn":3,"minsPlayed":1663,"manOfTheMatch":1,"yellowCard":2.0,"redCard":1.0,"goal":2,"assistTotal":1,"shotsPerGame":0.90909090909090906,"aerialWonPerGame":2.1818181818181817,"passSuccess":87.844254510921189},{"name":"Danny Rose","firstName":"Danny","lastName":"Rose","playerId":24711,"height":173,"weight":72,"age":26,"isManOfTheMatch":false,"isActive":true,"isOpta":true,"playedPositions":"-DL-ML-","positionText":"Defender","playedPositionsShort":"D(L),M(L)","teamId":30,"teamName":"Tottenham","seasonId":6335,"seasonName":"2016/2017","tournamentId":2,"tournamentRegionId":252,"tournamentRegionCode":"gb-eng","regionCode":"gb-eng","tournamentName":"Premier League","tournamentShortName":"EPL","rating":7.418333333333333,"ranking":59,"apps":18,"subOn":0,"minsPlayed":1533,"manOfTheMatch":1,"yellowCard":8.0,"redCard":0.0,"goal":2,"assistTotal":2,"shotsPerGame":1.2777777777777777,"aerialWonPerGame":1.5,"passSuccess":77.2669220945083},{"name":"Wilfried Zaha","firstName":"Wilfried","lastName":"Zaha","playerId":85059,"height":180,"weight":66,"age":24,"isManOfTheMatch":false,"isActive":true,"isOpta":true,"playedPositions":"-AML-AMR-","positionText":"Midfielder","playedPositionsShort":"AM(LR)","teamId":162,"teamName":"Crystal Palace","seasonId":6335,"seasonName":"2016/2017","tournamentId":2,"tournamentRegionId":252,"tournamentRegionCode":"gb-eng","regionCode":"ci","tournamentName":"Premier League","tournamentShortName":"EPL","rating":7.4086363636363641,"ranking":60,"apps":22,"subOn":1,"minsPlayed":1892,"manOfTheMatch":3,"yellowCard":6.0,"redCard":0.0,"goal":4,"assistTotal":6,"shotsPerGame":1.3181818181818181,"aerialWonPerGame":0.36363636363636365,"passSuccess":80.046403712296993}], "paging" : {  "currentPage" : 6,  "totalPages" : 145,  "resultsPerPage" : 10,  "totalResults" : 1448,  "firstRecordIndex" : 51,  "lastRecordIndex" : 60 }, "statColumns" : ["apps","subOn","minsPlayed","goal","assistTotal","yellowCard","redCard","shotsPerGame","passSuccess","aerialWonPerGame","manOfTheMatch"]} 