{ "playerTableStats" : [{"name":"Neymar","firstName":"Neymar da Silva","lastName":"Santos Júnior","playerId":50835,"height":175,"weight":68,"age":25,"isManOfTheMatch":false,"isActive":true,"isOpta":true,"playedPositions":"-AMC-AML-AMR-FW-","positionText":"Forward","playedPositionsShort":"AM(CLR),FW","teamId":65,"teamName":"Barcelona","seasonId":6436,"seasonName":"2016/2017","tournamentId":4,"tournamentRegionId":206,"tournamentRegionCode":"es","regionCode":"br","tournamentName":"La Liga","tournamentShortName":"SLL","rating":8.3331578947368428,"ranking":1,"apps":19,"subOn":0,"minsPlayed":1707,"manOfTheMatch":4,"yellowCard":5.0,"redCard":0.0,"goal":6,"assistTotal":7,"shotsPerGame":3.1578947368421053,"aerialWonPerGame":0.26315789473684209,"passSuccess":75.7126567844926},{"name":"Lionel Messi","firstName":"Lionel","lastName":"Messi","playerId":11119,"height":170,"weight":72,"age":29,"isManOfTheMatch":false,"isActive":true,"isOpta":true,"playedPositions":"-AMC-AMR-FW-","positionText":"Forward","playedPositionsShort":"AM(CR),FW","teamId":65,"teamName":"Barcelona","seasonId":6436,"seasonName":"2016/2017","tournamentId":4,"tournamentRegionId":206,"tournamentRegionCode":"es","regionCode":"ar","tournamentName":"La Liga","tournamentShortName":"SLL","rating":8.269499999999999,"ranking":2,"apps":20,"subOn":2,"minsPlayed":1629,"manOfTheMatch":8,"yellowCard":3.0,"redCard":0.0,"goal":19,"assistTotal":4,"shotsPerGame":4.9,"aerialWonPerGame":0.15,"passSuccess":80.467091295116774},{"name":"Thiago Alcántara","firstName":"Thiago","lastName":"Alcántara do Nascimento","playerId":74939,"height":174,"weight":70,"age":25,"isManOfTheMatch":false,"isActive":true,"isOpta":true,"playedPositions":"-MC-","positionText":"Midfielder","playedPositionsShort":"M(C)","teamId":37,"teamName":"Bayern Munich","seasonId":6392,"seasonName":"2016/2017","tournamentId":3,"tournamentRegionId":81,"tournamentRegionCode":"de","regionCode":"es","tournamentName":"Bundesliga","tournamentShortName":"GB","rating":8.0323529411764714,"ranking":3,"apps":17,"subOn":1,"minsPlayed":1460,"manOfTheMatch":3,"yellowCard":3.0,"redCard":0.0,"goal":3,"assistTotal":3,"shotsPerGame":1.3529411764705883,"aerialWonPerGame":1.7058823529411764,"passSuccess":90.517779164067363},{"name":"Alexis Sánchez","firstName":"Alexis","lastName":"Sánchez","playerId":25244,"height":169,"weight":62,"age":28,"isManOfTheMatch":false,"isActive":true,"isOpta":true,"playedPositions":"-FW-ML-MR-","positionText":"Forward","playedPositionsShort":"M(LR),FW","teamId":13,"teamName":"Arsenal","seasonId":6335,"seasonName":"2016/2017","tournamentId":2,"tournamentRegionId":252,"tournamentRegionCode":"gb-eng","regionCode":"cl","tournamentName":"Premier League","tournamentShortName":"EPL","rating":7.9059999999999979,"ranking":4,"apps":25,"subOn":1,"minsPlayed":2146,"manOfTheMatch":7,"yellowCard":5.0,"redCard":0.0,"goal":17,"assistTotal":8,"shotsPerGame":3.64,"aerialWonPerGame":0.4,"passSuccess":73.66447985004686},{"name":"Eden Hazard","firstName":"Eden","lastName":"Hazard","playerId":33404,"height":173,"weight":74,"age":26,"isManOfTheMatch":false,"isActive":true,"isOpta":true,"playedPositions":"-FW-MC-ML-MR-","positionText":"Midfielder","playedPositionsShort":"M(CLR),FW","teamId":15,"teamName":"Chelsea","seasonId":6335,"seasonName":"2016/2017","tournamentId":2,"tournamentRegionId":252,"tournamentRegionCode":"gb-eng","regionCode":"be","tournamentName":"Premier League","tournamentShortName":"EPL","rating":7.85875,"ranking":5,"apps":24,"subOn":0,"minsPlayed":2010,"manOfTheMatch":9,"yellowCard":2.0,"redCard":0.0,"goal":10,"assistTotal":3,"shotsPerGame":2.2083333333333335,"aerialWonPerGame":0.58333333333333337,"passSuccess":83.939137785291635},{"name":"Felipe Anderson","firstName":"Felipe Anderson","lastName":"Pereira Gomes","playerId":93026,"height":175,"weight":70,"age":23,"isManOfTheMatch":false,"isActive":true,"isOpta":true,"playedPositions":"-MC-ML-MR-","positionText":"Midfielder","playedPositionsShort":"M(CLR)","teamId":77,"teamName":"Lazio","seasonId":6461,"seasonName":"2016/2017","tournamentId":5,"tournamentRegionId":108,"tournamentRegionCode":"it","regionCode":"br","tournamentName":"Serie A","tournamentShortName":"ISA","rating":7.81,"ranking":6,"apps":23,"subOn":1,"minsPlayed":1952,"manOfTheMatch":6,"yellowCard":5.0,"redCard":0.0,"goal":2,"assistTotal":8,"shotsPerGame":2.0434782608695654,"aerialWonPerGame":0.60869565217391308,"passSuccess":75.125881168177244},{"name":"Edin Dzeko","firstName":"Edin","lastName":"Dzeko","playerId":24845,"height":193,"weight":84,"age":30,"isManOfTheMatch":false,"isActive":true,"isOpta":true,"playedPositions":"-FW-","positionText":"Forward","playedPositionsShort":"FW","teamId":84,"teamName":"Roma","seasonId":6461,"seasonName":"2016/2017","tournamentId":5,"tournamentRegionId":108,"tournamentRegionCode":"it","regionCode":"ba","tournamentName":"Serie A","tournamentShortName":"ISA","rating":7.8083999999999989,"ranking":7,"apps":25,"subOn":2,"minsPlayed":2150,"manOfTheMatch":7,"yellowCard":3.0,"redCard":0.0,"goal":19,"assistTotal":2,"shotsPerGame":5.24,"aerialWonPerGame":3.88,"passSuccess":70.566727605118828},{"name":"Toni Kroos","firstName":"Toni","lastName":"Kroos","playerId":31772,"height":182,"weight":78,"age":27,"isManOfTheMatch":false,"isActive":true,"isOpta":true,"playedPositions":"-MC-","positionText":"Midfielder","playedPositionsShort":"M(C)","teamId":52,"teamName":"Real Madrid","seasonId":6436,"seasonName":"2016/2017","tournamentId":4,"tournamentRegionId":206,"tournamentRegionCode":"es","regionCode":"de","tournamentName":"La Liga","tournamentShortName":"SLL","rating":7.7872222222222227,"ranking":8,"apps":18,"subOn":1,"minsPlayed":1525,"manOfTheMatch":3,"yellowCard":5.0,"redCard":0.0,"goal":1,"assistTotal":9,"shotsPerGame":1.2777777777777777,"aerialWonPerGame":0.33333333333333331,"passSuccess":92.355212355212359},{"name":"Luis Suárez","firstName":"Luis","lastName":"Suárez","playerId":22221,"height":182,"weight":86,"age":30,"isManOfTheMatch":false,"isActive":true,"isOpta":true,"playedPositions":"-AMC-AML-AMR-FW-","positionText":"Forward","playedPositionsShort":"AM(CLR),FW","teamId":65,"teamName":"Barcelona","seasonId":6436,"seasonName":"2016/2017","tournamentId":4,"tournamentRegionId":206,"tournamentRegionCode":"es","regionCode":"uy","tournamentName":"La Liga","tournamentShortName":"SLL","rating":7.7866666666666671,"ranking":9,"apps":21,"subOn":1,"minsPlayed":1685,"manOfTheMatch":4,"yellowCard":7.0,"redCard":0.0,"goal":18,"assistTotal":8,"shotsPerGame":3.3333333333333335,"aerialWonPerGame":0.33333333333333331,"passSuccess":73.818897637795274},{"name":"Paul Pogba","firstName":"Paul","lastName":"Pogba","playerId":97752,"height":191,"weight":84,"age":23,"isManOfTheMatch":false,"isActive":true,"isOpta":true,"playedPositions":"-MC-","positionText":"Midfielder","playedPositionsShort":"M(C)","teamId":32,"teamName":"Manchester United","seasonId":6335,"seasonName":"2016/2017","tournamentId":2,"tournamentRegionId":252,"tournamentRegionCode":"gb-eng","regionCode":"fr","tournamentName":"Premier League","tournamentShortName":"EPL","rating":7.7537499999999993,"ranking":10,"apps":24,"subOn":0,"minsPlayed":2160,"manOfTheMatch":4,"yellowCard":7.0,"redCard":0.0,"goal":4,"assistTotal":3,"shotsPerGame":3.375,"aerialWonPerGame":3.125,"passSuccess":85.386338185890253}], "paging" : { "currentPage" : 1, "totalPages" : 145, "resultsPerPage" : 10, "totalResults" : 1448, "firstRecordIndex" : 1, "lastRecordIndex" : 10 }, "statColumns" : ["apps","subOn","minsPlayed","goal","assistTotal","yellowCard","redCard","shotsPerGame","passSuccess","aerialWonPerGame","manOfTheMatch"]}
