 {     "playerTableStats" : [{"name":"Jan Vertonghen","firstName":"Jan","lastName":"Vertonghen","playerId":21778,"height":189,"weight":86,"age":29,"isManOfTheMatch":false,"isActive":true,"isOpta":true,"playedPositions":"-DC-DL-","positionText":"Defender","playedPositionsShort":"D(CL)","teamId":30,"teamName":"Tottenham","seasonId":6335,"seasonName":"2016/2017","tournamentId":2,"tournamentRegionId":252,"tournamentRegionCode":"gb-eng","regionCode":"be","tournamentName":"Premier League","tournamentShortName":"EPL","rating":7.3459999999999992,"ranking":81,"apps":20,"subOn":0,"minsPlayed":1774,"manOfTheMatch":1,"yellowCard":5.0,"redCard":0.0,"goal":0,"assistTotal":0,"shotsPerGame":0.4,"aerialWonPerGame":3.75,"passSuccess":84.719864176570454},{"name":"Bernardo Silva","firstName":"Bernardo Mota","lastName":"Veiga de Carvalho e Silva","playerId":136741,"height":173,"weight":64,"age":22,"isManOfTheMatch":false,"isActive":true,"isOpta":true,"playedPositions":"-AMC-AML-AMR-","positionText":"Midfielder","playedPositionsShort":"AM(CLR)","teamId":248,"teamName":"Monaco","seasonId":6318,"seasonName":"2016/2017","tournamentId":22,"tournamentRegionId":74,"tournamentRegionCode":"fr","regionCode":"pt","tournamentName":"Ligue 1","tournamentShortName":"FL1","rating":7.3439999999999994,"ranking":82,"apps":25,"subOn":2,"minsPlayed":1949,"manOfTheMatch":3,"yellowCard":2.0,"redCard":0.0,"goal":6,"assistTotal":5,"shotsPerGame":1.68,"aerialWonPerGame":0.44,"passSuccess":80.290205562273272},{"name":"Antoine Griezmann","firstName":"Antoine","lastName":"Griezmann","playerId":80241,"height":175,"weight":72,"age":25,"isManOfTheMatch":false,"isActive":true,"isOpta":true,"playedPositions":"-AMC-AML-AMR-FW-","positionText":"Forward","playedPositionsShort":"AM(CLR),FW","teamId":63,"teamName":"Atletico Madrid","seasonId":6436,"seasonName":"2016/2017","tournamentId":4,"tournamentRegionId":206,"tournamentRegionCode":"es","regionCode":"fr","tournamentName":"La Liga","tournamentShortName":"SLL","rating":7.3386363636363621,"ranking":83,"apps":22,"subOn":0,"minsPlayed":1874,"manOfTheMatch":2,"yellowCard":2.0,"redCard":0.0,"goal":9,"assistTotal":6,"shotsPerGame":2.4545454545454546,"aerialWonPerGame":1.3181818181818181,"passSuccess":77.678571428571431},{"name":"Sebastian Rudy","firstName":"Sebastian","lastName":"Rudy","playerId":38649,"height":180,"weight":74,"age":26,"isManOfTheMatch":false,"isActive":true,"isOpta":true,"playedPositions":"-DR-MC-MR-","positionText":"Midfielder","playedPositionsShort":"D(R),M(CR)","teamId":1211,"teamName":"Hoffenheim","seasonId":6392,"seasonName":"2016/2017","tournamentId":3,"tournamentRegionId":81,"tournamentRegionCode":"de","regionCode":"de","tournamentName":"Bundesliga","tournamentShortName":"GB","rating":7.3378947368421059,"ranking":84,"apps":19,"subOn":0,"minsPlayed":1678,"manOfTheMatch":2,"yellowCard":6.0,"redCard":0.0,"goal":0,"assistTotal":4,"shotsPerGame":0.94736842105263153,"aerialWonPerGame":1.4736842105263157,"passSuccess":78.781038374717838},{"name":"Jean Michael Seri","firstName":"Jean Michael","lastName":"Seri","playerId":136262,"height":168,"weight":65,"age":25,"isManOfTheMatch":false,"isActive":true,"isOpta":true,"playedPositions":"-MC-","positionText":"Midfielder","playedPositionsShort":"M(C)","teamId":613,"teamName":"Nice","seasonId":6318,"seasonName":"2016/2017","tournamentId":22,"tournamentRegionId":74,"tournamentRegionCode":"fr","regionCode":"ci","tournamentName":"Ligue 1","tournamentShortName":"FL1","rating":7.3363636363636369,"ranking":85,"apps":22,"subOn":0,"minsPlayed":1910,"manOfTheMatch":1,"yellowCard":1.0,"redCard":0.0,"goal":3,"assistTotal":9,"shotsPerGame":0.81818181818181823,"aerialWonPerGame":0.45454545454545453,"passSuccess":89.275527666856817},{"name":"Mats Hummels","firstName":"Mats","lastName":"Hummels","playerId":21541,"height":191,"weight":92,"age":28,"isManOfTheMatch":false,"isActive":true,"isOpta":true,"playedPositions":"-DC-","positionText":"Defender","playedPositionsShort":"D(C)","teamId":37,"teamName":"Bayern Munich","seasonId":6392,"seasonName":"2016/2017","tournamentId":3,"tournamentRegionId":81,"tournamentRegionCode":"de","regionCode":"de","tournamentName":"Bundesliga","tournamentShortName":"GB","rating":7.3321052631578931,"ranking":86,"apps":19,"subOn":2,"minsPlayed":1579,"manOfTheMatch":1,"yellowCard":4.0,"redCard":0.0,"goal":1,"assistTotal":1,"shotsPerGame":1.2105263157894737,"aerialWonPerGame":4.1052631578947372,"passSuccess":88.911022576361219},{"name":"Ignacio Camacho","firstName":"Ignacio","lastName":"Camacho","playerId":35199,"height":182,"weight":75,"age":26,"isManOfTheMatch":false,"isActive":true,"isOpta":true,"playedPositions":"-MC-","positionText":"Midfielder","playedPositionsShort":"M(C)","teamId":69,"teamName":"Malaga","seasonId":6436,"seasonName":"2016/2017","tournamentId":4,"tournamentRegionId":206,"tournamentRegionCode":"es","regionCode":"es","tournamentName":"La Liga","tournamentShortName":"SLL","rating":7.3313636363636361,"ranking":87,"apps":22,"subOn":0,"minsPlayed":1980,"manOfTheMatch":2,"yellowCard":10.0,"redCard":0.0,"goal":4,"assistTotal":2,"shotsPerGame":1.0454545454545454,"aerialWonPerGame":4.8181818181818183,"passSuccess":73.898305084745758},{"name":"Mauro Icardi","firstName":"Mauro","lastName":"Icardi","playerId":106964,"height":181,"weight":75,"age":24,"isManOfTheMatch":false,"isActive":true,"isOpta":true,"playedPositions":"-FW-","positionText":"Forward","playedPositionsShort":"FW","teamId":75,"teamName":"Inter","seasonId":6461,"seasonName":"2016/2017","tournamentId":5,"tournamentRegionId":108,"tournamentRegionCode":"it","regionCode":"ar","tournamentName":"Serie A","tournamentShortName":"ISA","rating":7.3286956521739119,"ranking":88,"apps":23,"subOn":0,"minsPlayed":2070,"manOfTheMatch":6,"yellowCard":0.0,"redCard":0.0,"goal":15,"assistTotal":8,"shotsPerGame":3.5217391304347827,"aerialWonPerGame":1.5217391304347827,"passSuccess":73.421926910299},{"name":"Phil Jones","firstName":"Phil","lastName":"Jones","playerId":81726,"height":180,"weight":71,"age":25,"isManOfTheMatch":false,"isActive":true,"isOpta":true,"playedPositions":"-DC-DMC-DR-","positionText":"Defender","playedPositionsShort":"D(CR),DMC","teamId":32,"teamName":"Manchester United","seasonId":6335,"seasonName":"2016/2017","tournamentId":2,"tournamentRegionId":252,"tournamentRegionCode":"gb-eng","regionCode":"gb-eng","tournamentName":"Premier League","tournamentShortName":"EPL","rating":7.3275,"ranking":89,"apps":12,"subOn":0,"minsPlayed":1045,"manOfTheMatch":0,"yellowCard":0.0,"redCard":0.0,"goal":0,"assistTotal":0,"shotsPerGame":0.25,"aerialWonPerGame":3.0,"passSuccess":89.532710280373834},{"name":"Shkodran Mustafi","firstName":"Shkodran","lastName":"Mustafi","playerId":80921,"height":184,"weight":82,"age":24,"isManOfTheMatch":false,"isActive":true,"isOpta":true,"playedPositions":"-DC-DR-","positionText":"Defender","playedPositionsShort":"D(CR)","teamId":13,"teamName":"Arsenal","seasonId":6335,"seasonName":"2016/2017","tournamentId":2,"tournamentRegionId":252,"tournamentRegionCode":"gb-eng","regionCode":"de","tournamentName":"Premier League","tournamentShortName":"EPL","rating":7.3222222222222246,"ranking":90,"apps":18,"subOn":0,"minsPlayed":1555,"manOfTheMatch":2,"yellowCard":6.0,"redCard":0.0,"goal":1,"assistTotal":1,"shotsPerGame":0.83333333333333337,"aerialWonPerGame":4.0,"passSuccess":82.844444444444449}], "paging" : {  "currentPage" : 9,  "totalPages" : 145,  "resultsPerPage" : 10,  "totalResults" : 1448,  "firstRecordIndex" : 81,  "lastRecordIndex" : 90 }, "statColumns" : ["apps","subOn","minsPlayed","goal","assistTotal","yellowCard","redCard","shotsPerGame","passSuccess","aerialWonPerGame","manOfTheMatch"]} 