 {     "playerTableStats" : [{"name":"Christian Eriksen","firstName":"Christian","lastName":"Eriksen","playerId":69344,"height":175,"weight":71,"age":25,"isManOfTheMatch":false,"isActive":true,"isOpta":true,"playedPositions":"-MC-ML-MR-","positionText":"Midfielder","playedPositionsShort":"M(CLR)","teamId":30,"teamName":"Tottenham","seasonId":6335,"seasonName":"2016/2017","tournamentId":2,"tournamentRegionId":252,"tournamentRegionCode":"gb-eng","regionCode":"dk","tournamentName":"Premier League","tournamentShortName":"EPL","rating":7.369583333333332,"ranking":71,"apps":24,"subOn":0,"minsPlayed":2097,"manOfTheMatch":3,"yellowCard":0.0,"redCard":0.0,"goal":5,"assistTotal":8,"shotsPerGame":3.75,"aerialWonPerGame":0.66666666666666663,"passSuccess":79.907264296754249},{"name":"Bruno Soriano","firstName":"Bruno","lastName":"Soriano","playerId":14231,"height":184,"weight":73,"age":32,"isManOfTheMatch":false,"isActive":true,"isOpta":true,"playedPositions":"-MC-","positionText":"Midfielder","playedPositionsShort":"M(C)","teamId":839,"teamName":"Villarreal","seasonId":6436,"seasonName":"2016/2017","tournamentId":4,"tournamentRegionId":206,"tournamentRegionCode":"es","regionCode":"es","tournamentName":"La Liga","tournamentShortName":"SLL","rating":7.36761904761905,"ranking":72,"apps":21,"subOn":0,"minsPlayed":1882,"manOfTheMatch":0,"yellowCard":4.0,"redCard":0.0,"goal":5,"assistTotal":1,"shotsPerGame":0.61904761904761907,"aerialWonPerGame":1.2380952380952381,"passSuccess":90.052750565184624},{"name":"Kyle Walker","firstName":"Kyle","lastName":"Walker","playerId":69778,"height":178,"weight":70,"age":26,"isManOfTheMatch":false,"isActive":true,"isOpta":true,"playedPositions":"-DR-MR-","positionText":"Defender","playedPositionsShort":"D(R),M(R)","teamId":30,"teamName":"Tottenham","seasonId":6335,"seasonName":"2016/2017","tournamentId":2,"tournamentRegionId":252,"tournamentRegionCode":"gb-eng","regionCode":"gb-eng","tournamentName":"Premier League","tournamentShortName":"EPL","rating":7.3670833333333334,"ranking":73,"apps":24,"subOn":0,"minsPlayed":2087,"manOfTheMatch":2,"yellowCard":5.0,"redCard":0.0,"goal":0,"assistTotal":5,"shotsPerGame":0.5,"aerialWonPerGame":2.0833333333333335,"passSuccess":79.352580927384082},{"name":"Thiago Silva","firstName":"Thiago Emiliano","lastName":"da Silva","playerId":28550,"height":183,"weight":79,"age":32,"isManOfTheMatch":false,"isActive":true,"isOpta":true,"playedPositions":"-DC-","positionText":"Defender","playedPositionsShort":"D(C)","teamId":304,"teamName":"Paris Saint Germain","seasonId":6318,"seasonName":"2016/2017","tournamentId":22,"tournamentRegionId":74,"tournamentRegionCode":"fr","regionCode":"br","tournamentName":"Ligue 1","tournamentShortName":"FL1","rating":7.3668421052631574,"ranking":74,"apps":19,"subOn":0,"minsPlayed":1710,"manOfTheMatch":2,"yellowCard":1.0,"redCard":0.0,"goal":3,"assistTotal":0,"shotsPerGame":0.68421052631578949,"aerialWonPerGame":2.2105263157894739,"passSuccess":93.531694695989657},{"name":"Anthony Modeste","firstName":"Anthony","lastName":"Modeste","playerId":25605,"height":187,"weight":84,"age":28,"isManOfTheMatch":false,"isActive":true,"isOpta":true,"playedPositions":"-FW-","positionText":"Forward","playedPositionsShort":"FW","teamId":282,"teamName":"FC Cologne","seasonId":6392,"seasonName":"2016/2017","tournamentId":3,"tournamentRegionId":81,"tournamentRegionCode":"de","regionCode":"fr","tournamentName":"Bundesliga","tournamentShortName":"GB","rating":7.366190476190476,"ranking":75,"apps":21,"subOn":0,"minsPlayed":1808,"manOfTheMatch":4,"yellowCard":3.0,"redCard":0.0,"goal":17,"assistTotal":1,"shotsPerGame":3.2857142857142856,"aerialWonPerGame":4.2380952380952381,"passSuccess":63.209876543209873},{"name":"Raffael","firstName":"Raffael","lastName":"Caetano de Araújo","playerId":14958,"height":174,"weight":69,"age":31,"isManOfTheMatch":false,"isActive":true,"isOpta":true,"playedPositions":"-AMC-AML-FW-","positionText":"Forward","playedPositionsShort":"AM(CL),FW","teamId":134,"teamName":"Borussia M.Gladbach","seasonId":6392,"seasonName":"2016/2017","tournamentId":3,"tournamentRegionId":81,"tournamentRegionCode":"de","regionCode":"br","tournamentName":"Bundesliga","tournamentShortName":"GB","rating":7.361538461538462,"ranking":76,"apps":13,"subOn":0,"minsPlayed":1068,"manOfTheMatch":1,"yellowCard":1.0,"redCard":0.0,"goal":5,"assistTotal":0,"shotsPerGame":2.3076923076923075,"aerialWonPerGame":0.53846153846153844,"passSuccess":76.17977528089888},{"name":"Michail Antonio","firstName":"Michail","lastName":"Antonio","playerId":69517,"height":180,"weight":82,"age":26,"isManOfTheMatch":false,"isActive":true,"isOpta":true,"playedPositions":"-DR-FW-MC-ML-MR-","positionText":"Midfielder","playedPositionsShort":"D(R),M(CLR),FW","teamId":29,"teamName":"West Ham","seasonId":6335,"seasonName":"2016/2017","tournamentId":2,"tournamentRegionId":252,"tournamentRegionCode":"gb-eng","regionCode":"gb-eng","tournamentName":"Premier League","tournamentShortName":"EPL","rating":7.3595833333333331,"ranking":77,"apps":24,"subOn":0,"minsPlayed":2088,"manOfTheMatch":3,"yellowCard":4.0,"redCard":0.0,"goal":8,"assistTotal":3,"shotsPerGame":2.625,"aerialWonPerGame":2.2083333333333335,"passSuccess":73.076923076923066},{"name":"Benjamin Mendy","firstName":"Benjamin","lastName":"Mendy","playerId":105962,"height":185,"weight":85,"age":22,"isManOfTheMatch":false,"isActive":true,"isOpta":true,"playedPositions":"-DL-DMC-ML-","positionText":"Defender","playedPositionsShort":"D(L),DMC,M(L)","teamId":248,"teamName":"Monaco","seasonId":6318,"seasonName":"2016/2017","tournamentId":22,"tournamentRegionId":74,"tournamentRegionCode":"fr","regionCode":"fr","tournamentName":"Ligue 1","tournamentShortName":"FL1","rating":7.3582352941176481,"ranking":78,"apps":17,"subOn":0,"minsPlayed":1443,"manOfTheMatch":2,"yellowCard":5.0,"redCard":1.0,"goal":0,"assistTotal":5,"shotsPerGame":0.58823529411764708,"aerialWonPerGame":1.7647058823529411,"passSuccess":77.108433734939766},{"name":"Marco Fabián","firstName":"Marco","lastName":"Fabián","playerId":35433,"height":170,"weight":65,"age":27,"isManOfTheMatch":false,"isActive":true,"isOpta":true,"playedPositions":"-AMC-AMR-","positionText":"Midfielder","playedPositionsShort":"AM(CR)","teamId":45,"teamName":"Eintracht Frankfurt","seasonId":6392,"seasonName":"2016/2017","tournamentId":3,"tournamentRegionId":81,"tournamentRegionCode":"de","regionCode":"mx","tournamentName":"Bundesliga","tournamentShortName":"GB","rating":7.3546153846153848,"ranking":79,"apps":13,"subOn":0,"minsPlayed":1170,"manOfTheMatch":2,"yellowCard":6.0,"redCard":0.0,"goal":3,"assistTotal":4,"shotsPerGame":3.0,"aerialWonPerGame":0.84615384615384615,"passSuccess":78.026905829596416},{"name":"Falcao","firstName":"Radamel Falcao","lastName":"García Zárate","playerId":18701,"height":177,"weight":72,"age":31,"isManOfTheMatch":false,"isActive":true,"isOpta":true,"playedPositions":"-FW-","positionText":"Forward","playedPositionsShort":"FW","teamId":248,"teamName":"Monaco","seasonId":6318,"seasonName":"2016/2017","tournamentId":22,"tournamentRegionId":74,"tournamentRegionCode":"fr","regionCode":"co","tournamentName":"Ligue 1","tournamentShortName":"FL1","rating":7.3469999999999995,"ranking":80,"apps":20,"subOn":5,"minsPlayed":1298,"manOfTheMatch":1,"yellowCard":2.0,"redCard":0.0,"goal":16,"assistTotal":3,"shotsPerGame":2.45,"aerialWonPerGame":1.2,"passSuccess":77.94561933534743}], "paging" : {  "currentPage" : 8,  "totalPages" : 145,  "resultsPerPage" : 10,  "totalResults" : 1448,  "firstRecordIndex" : 71,  "lastRecordIndex" : 80 }, "statColumns" : ["apps","subOn","minsPlayed","goal","assistTotal","yellowCard","redCard","shotsPerGame","passSuccess","aerialWonPerGame","manOfTheMatch"]} 