 {     "playerTableStats" : [{"name":"Harry Kane","firstName":"Harry","lastName":"Kane","playerId":83532,"height":188,"weight":76,"age":23,"isManOfTheMatch":false,"isActive":true,"isOpta":true,"playedPositions":"-AMC-FW-","positionText":"Forward","playedPositionsShort":"AM(C),FW","teamId":30,"teamName":"Tottenham","seasonId":6335,"seasonName":"2016/2017","tournamentId":2,"tournamentRegionId":252,"tournamentRegionCode":"gb-eng","regionCode":"gb-eng","tournamentName":"Premier League","tournamentShortName":"EPL","rating":7.3039999999999994,"ranking":101,"apps":20,"subOn":0,"minsPlayed":1723,"manOfTheMatch":2,"yellowCard":1.0,"redCard":0.0,"goal":14,"assistTotal":3,"shotsPerGame":2.85,"aerialWonPerGame":1.55,"passSuccess":70.864197530864189},{"name":"Benjamin André","firstName":"Benjamin","lastName":"André","playerId":43415,"height":180,"weight":76,"age":26,"isManOfTheMatch":false,"isActive":true,"isOpta":true,"playedPositions":"-DR-MC-ML-MR-","positionText":"Midfielder","playedPositionsShort":"D(R),M(CLR)","teamId":313,"teamName":"Rennes","seasonId":6318,"seasonName":"2016/2017","tournamentId":22,"tournamentRegionId":74,"tournamentRegionCode":"fr","regionCode":"fr","tournamentName":"Ligue 1","tournamentShortName":"FL1","rating":7.3024999999999993,"ranking":102,"apps":24,"subOn":0,"minsPlayed":2157,"manOfTheMatch":3,"yellowCard":6.0,"redCard":0.0,"goal":0,"assistTotal":2,"shotsPerGame":0.625,"aerialWonPerGame":3.9166666666666665,"passSuccess":82.823129251700678},{"name":"Asier Illarramendi","firstName":"Asier","lastName":"Illarramendi","playerId":87094,"height":179,"weight":76,"age":26,"isManOfTheMatch":false,"isActive":true,"isOpta":true,"playedPositions":"-MC-","positionText":"Midfielder","playedPositionsShort":"M(C)","teamId":68,"teamName":"Real Sociedad","seasonId":6436,"seasonName":"2016/2017","tournamentId":4,"tournamentRegionId":206,"tournamentRegionCode":"es","regionCode":"es","tournamentName":"La Liga","tournamentShortName":"SLL","rating":7.3,"ranking":103,"apps":22,"subOn":1,"minsPlayed":1924,"manOfTheMatch":3,"yellowCard":6.0,"redCard":0.0,"goal":1,"assistTotal":1,"shotsPerGame":0.5,"aerialWonPerGame":1.4090909090909092,"passSuccess":83.917396745932422},{"name":"Senad Lulic","firstName":"Senad","lastName":"Lulic","playerId":26168,"height":183,"weight":78,"age":31,"isManOfTheMatch":false,"isActive":true,"isOpta":true,"playedPositions":"-DL-MC-ML-","positionText":"Midfielder","playedPositionsShort":"D(L),M(CL)","teamId":77,"teamName":"Lazio","seasonId":6461,"seasonName":"2016/2017","tournamentId":5,"tournamentRegionId":108,"tournamentRegionCode":"it","regionCode":"ba","tournamentName":"Serie A","tournamentShortName":"ISA","rating":7.298636363636362,"ranking":104,"apps":22,"subOn":2,"minsPlayed":1726,"manOfTheMatch":2,"yellowCard":6.0,"redCard":0.0,"goal":2,"assistTotal":5,"shotsPerGame":0.95454545454545459,"aerialWonPerGame":0.95454545454545459,"passSuccess":78.748524203069664},{"name":"Mitchell Weiser","firstName":"Mitchell","lastName":"Weiser","playerId":108914,"height":176,"weight":67,"age":22,"isManOfTheMatch":false,"isActive":true,"isOpta":true,"playedPositions":"-DR-MR-","positionText":"Defender","playedPositionsShort":"D(R),M(R)","teamId":47,"teamName":"Hertha Berlin","seasonId":6392,"seasonName":"2016/2017","tournamentId":3,"tournamentRegionId":81,"tournamentRegionCode":"de","regionCode":"de","tournamentName":"Bundesliga","tournamentShortName":"GB","rating":7.2975,"ranking":105,"apps":12,"subOn":1,"minsPlayed":897,"manOfTheMatch":2,"yellowCard":1.0,"redCard":0.0,"goal":1,"assistTotal":4,"shotsPerGame":0.41666666666666669,"aerialWonPerGame":0.66666666666666663,"passSuccess":69.142857142857139},{"name":"Christian Benteke","firstName":"Christian","lastName":"Benteke","playerId":68312,"height":190,"weight":83,"age":26,"isManOfTheMatch":false,"isActive":true,"isOpta":true,"playedPositions":"-FW-","positionText":"Forward","playedPositionsShort":"FW","teamId":162,"teamName":"Crystal Palace","seasonId":6335,"seasonName":"2016/2017","tournamentId":2,"tournamentRegionId":252,"tournamentRegionCode":"gb-eng","regionCode":"be","tournamentName":"Premier League","tournamentShortName":"EPL","rating":7.295217391304349,"ranking":106,"apps":23,"subOn":0,"minsPlayed":1998,"manOfTheMatch":4,"yellowCard":5.0,"redCard":0.0,"goal":9,"assistTotal":1,"shotsPerGame":2.652173913043478,"aerialWonPerGame":9.2173913043478262,"passSuccess":60.436137071651089},{"name":"Diego Perotti","firstName":"Diego","lastName":"Perotti","playerId":31388,"height":179,"weight":70,"age":28,"isManOfTheMatch":false,"isActive":true,"isOpta":true,"playedPositions":"-FW-MC-ML-MR-","positionText":"Forward","playedPositionsShort":"M(CLR),FW","teamId":84,"teamName":"Roma","seasonId":6461,"seasonName":"2016/2017","tournamentId":5,"tournamentRegionId":108,"tournamentRegionCode":"it","regionCode":"ar","tournamentName":"Serie A","tournamentShortName":"ISA","rating":7.2914999999999992,"ranking":107,"apps":20,"subOn":5,"minsPlayed":1260,"manOfTheMatch":1,"yellowCard":0.0,"redCard":0.0,"goal":6,"assistTotal":4,"shotsPerGame":1.35,"aerialWonPerGame":0.35,"passSuccess":81.237911025145067},{"name":"Allan Saint-Maximin","firstName":"Allan","lastName":"Saint-Maximin","playerId":135891,"height":173,"weight":67,"age":19,"isManOfTheMatch":false,"isActive":true,"isOpta":true,"playedPositions":"-AMC-AMR-","positionText":"Midfielder","playedPositionsShort":"AM(CR)","teamId":310,"teamName":"SC Bastia","seasonId":6318,"seasonName":"2016/2017","tournamentId":22,"tournamentRegionId":74,"tournamentRegionCode":"fr","regionCode":"fr","tournamentName":"Ligue 1","tournamentShortName":"FL1","rating":7.2899999999999983,"ranking":108,"apps":22,"subOn":2,"minsPlayed":1798,"manOfTheMatch":2,"yellowCard":1.0,"redCard":1.0,"goal":3,"assistTotal":2,"shotsPerGame":2.4090909090909092,"aerialWonPerGame":0.81818181818181823,"passSuccess":79.789103690685408},{"name":"Casemiro","firstName":"Carlos Henrique Jose","lastName":"Francisco Venancio","playerId":88526,"height":184,"weight":80,"age":25,"isManOfTheMatch":false,"isActive":true,"isOpta":true,"playedPositions":"-DMC-","positionText":"Midfielder","playedPositionsShort":"DMC","teamId":52,"teamName":"Real Madrid","seasonId":6436,"seasonName":"2016/2017","tournamentId":4,"tournamentRegionId":206,"tournamentRegionCode":"es","regionCode":"br","tournamentName":"La Liga","tournamentShortName":"SLL","rating":7.2858333333333336,"ranking":109,"apps":12,"subOn":2,"minsPlayed":882,"manOfTheMatch":0,"yellowCard":4.0,"redCard":0.0,"goal":1,"assistTotal":0,"shotsPerGame":0.66666666666666663,"aerialWonPerGame":2.1666666666666665,"passSuccess":86.6779089376054},{"name":"José Callejón","firstName":"José","lastName":"Callejón","playerId":67206,"height":178,"weight":73,"age":30,"isManOfTheMatch":false,"isActive":true,"isOpta":true,"playedPositions":"-ML-MR-","positionText":"Forward","playedPositionsShort":"M(LR)","teamId":276,"teamName":"Napoli","seasonId":6461,"seasonName":"2016/2017","tournamentId":5,"tournamentRegionId":108,"tournamentRegionCode":"it","regionCode":"es","tournamentName":"Serie A","tournamentShortName":"ISA","rating":7.2816666666666663,"ranking":110,"apps":24,"subOn":0,"minsPlayed":2003,"manOfTheMatch":2,"yellowCard":2.0,"redCard":1.0,"goal":8,"assistTotal":9,"shotsPerGame":2.5833333333333335,"aerialWonPerGame":0.41666666666666669,"passSuccess":85.05263157894737}], "paging" : {  "currentPage" : 11,  "totalPages" : 145,  "resultsPerPage" : 10,  "totalResults" : 1448,  "firstRecordIndex" : 101,  "lastRecordIndex" : 110 }, "statColumns" : ["apps","subOn","minsPlayed","goal","assistTotal","yellowCard","redCard","shotsPerGame","passSuccess","aerialWonPerGame","manOfTheMatch"]} 