 {     "playerTableStats" : [{"name":"Romelu Lukaku","firstName":"Romelu","lastName":"Lukaku","playerId":78498,"height":190,"weight":94,"age":23,"isManOfTheMatch":false,"isActive":true,"isOpta":true,"playedPositions":"-FW-","positionText":"Forward","playedPositionsShort":"FW","teamId":31,"teamName":"Everton","seasonId":6335,"seasonName":"2016/2017","tournamentId":2,"tournamentRegionId":252,"tournamentRegionCode":"gb-eng","regionCode":"be","tournamentName":"Premier League","tournamentShortName":"EPL","rating":7.4820833333333319,"ranking":41,"apps":24,"subOn":1,"minsPlayed":2097,"manOfTheMatch":4,"yellowCard":3.0,"redCard":0.0,"goal":16,"assistTotal":4,"shotsPerGame":2.625,"aerialWonPerGame":3.625,"passSuccess":64.64},{"name":"Thomas Meunier","firstName":"Thomas","lastName":"Meunier","playerId":104376,"height":190,"weight":82,"age":25,"isManOfTheMatch":false,"isActive":true,"isOpta":true,"playedPositions":"-DR-","positionText":"Defender","playedPositionsShort":"D(R)","teamId":304,"teamName":"Paris Saint Germain","seasonId":6318,"seasonName":"2016/2017","tournamentId":22,"tournamentRegionId":74,"tournamentRegionCode":"fr","regionCode":"be","tournamentName":"Ligue 1","tournamentShortName":"FL1","rating":7.472,"ranking":42,"apps":15,"subOn":3,"minsPlayed":1116,"manOfTheMatch":1,"yellowCard":1.0,"redCard":0.0,"goal":1,"assistTotal":2,"shotsPerGame":0.73333333333333328,"aerialWonPerGame":1.7333333333333334,"passSuccess":85.777126099706749},{"name":"Óscar Trejo","firstName":"Óscar","lastName":"Trejo","playerId":16942,"height":180,"weight":79,"age":28,"isManOfTheMatch":false,"isActive":true,"isOpta":true,"playedPositions":"-MC-ML-MR-","positionText":"Midfielder","playedPositionsShort":"M(CLR)","teamId":246,"teamName":"Toulouse","seasonId":6318,"seasonName":"2016/2017","tournamentId":22,"tournamentRegionId":74,"tournamentRegionCode":"fr","regionCode":"ar","tournamentName":"Ligue 1","tournamentShortName":"FL1","rating":7.4611764705882351,"ranking":43,"apps":17,"subOn":1,"minsPlayed":1357,"manOfTheMatch":4,"yellowCard":2.0,"redCard":0.0,"goal":2,"assistTotal":5,"shotsPerGame":1.0588235294117647,"aerialWonPerGame":0.82352941176470584,"passSuccess":74.479889042995836},{"name":"Kevin De Bruyne","firstName":"Kevin","lastName":"De Bruyne","playerId":73084,"height":181,"weight":68,"age":25,"isManOfTheMatch":false,"isActive":true,"isOpta":true,"playedPositions":"-AMC-AML-AMR-FW-","positionText":"Midfielder","playedPositionsShort":"AM(CLR),FW","teamId":167,"teamName":"Manchester City","seasonId":6335,"seasonName":"2016/2017","tournamentId":2,"tournamentRegionId":252,"tournamentRegionCode":"gb-eng","regionCode":"be","tournamentName":"Premier League","tournamentShortName":"EPL","rating":7.4537499999999994,"ranking":44,"apps":24,"subOn":2,"minsPlayed":1902,"manOfTheMatch":3,"yellowCard":4.0,"redCard":0.0,"goal":4,"assistTotal":9,"shotsPerGame":2.7083333333333335,"aerialWonPerGame":0.375,"passSuccess":81.76318063958513},{"name":"Thomas Lemar","firstName":"Thomas","lastName":"Lemar","playerId":132962,"height":170,"weight":58,"age":21,"isManOfTheMatch":false,"isActive":true,"isOpta":true,"playedPositions":"-AMC-AML-AMR-","positionText":"Midfielder","playedPositionsShort":"AM(CLR)","teamId":248,"teamName":"Monaco","seasonId":6318,"seasonName":"2016/2017","tournamentId":22,"tournamentRegionId":74,"tournamentRegionCode":"fr","regionCode":"fr","tournamentName":"Ligue 1","tournamentShortName":"FL1","rating":7.4536363636363623,"ranking":45,"apps":22,"subOn":4,"minsPlayed":1709,"manOfTheMatch":3,"yellowCard":0.0,"redCard":0.0,"goal":7,"assistTotal":6,"shotsPerGame":1.6818181818181819,"aerialWonPerGame":0.22727272727272727,"passSuccess":83.273164861612514},{"name":"Philippe Coutinho","firstName":"Philippe","lastName":"Coutinho","playerId":80767,"height":171,"weight":71,"age":24,"isManOfTheMatch":false,"isActive":true,"isOpta":true,"playedPositions":"-MC-ML-MR-","positionText":"Midfielder","playedPositionsShort":"M(CLR)","teamId":26,"teamName":"Liverpool","seasonId":6335,"seasonName":"2016/2017","tournamentId":2,"tournamentRegionId":252,"tournamentRegionCode":"gb-eng","regionCode":"br","tournamentName":"Premier League","tournamentShortName":"EPL","rating":7.4516666666666662,"ranking":46,"apps":18,"subOn":2,"minsPlayed":1295,"manOfTheMatch":4,"yellowCard":2.0,"redCard":0.0,"goal":5,"assistTotal":5,"shotsPerGame":3.2222222222222223,"aerialWonPerGame":0.22222222222222221,"passSuccess":83.0166270783848},{"name":"Fernando Marçal","firstName":"Fernando","lastName":"Marçal","playerId":121718,"height":178,"weight":72,"age":28,"isManOfTheMatch":false,"isActive":true,"isOpta":true,"playedPositions":"-DL-","positionText":"Defender","playedPositionsShort":"D(L)","teamId":426,"teamName":"Guingamp","seasonId":6318,"seasonName":"2016/2017","tournamentId":22,"tournamentRegionId":74,"tournamentRegionCode":"fr","regionCode":"br","tournamentName":"Ligue 1","tournamentShortName":"FL1","rating":7.4486363636363642,"ranking":47,"apps":22,"subOn":0,"minsPlayed":1879,"manOfTheMatch":3,"yellowCard":3.0,"redCard":1.0,"goal":0,"assistTotal":6,"shotsPerGame":0.45454545454545453,"aerialWonPerGame":1.7272727272727273,"passSuccess":78.366914103923648},{"name":"Frederik Sörensen","firstName":"Frederik","lastName":"Sörensen","playerId":93459,"height":194,"weight":88,"age":24,"isManOfTheMatch":false,"isActive":true,"isOpta":true,"playedPositions":"-DC-DR-","positionText":"Defender","playedPositionsShort":"D(CR)","teamId":282,"teamName":"FC Cologne","seasonId":6392,"seasonName":"2016/2017","tournamentId":3,"tournamentRegionId":81,"tournamentRegionCode":"de","regionCode":"dk","tournamentName":"Bundesliga","tournamentShortName":"GB","rating":7.4466666666666663,"ranking":48,"apps":21,"subOn":0,"minsPlayed":1890,"manOfTheMatch":2,"yellowCard":5.0,"redCard":0.0,"goal":0,"assistTotal":2,"shotsPerGame":0.66666666666666663,"aerialWonPerGame":2.6666666666666665,"passSuccess":71.538461538461533},{"name":"Fabinho","firstName":"Fabio Henrique","lastName":"Tavares","playerId":115916,"height":188,"weight":78,"age":23,"isManOfTheMatch":false,"isActive":true,"isOpta":true,"playedPositions":"-DMC-DR-","positionText":"Midfielder","playedPositionsShort":"D(R),DMC","teamId":248,"teamName":"Monaco","seasonId":6318,"seasonName":"2016/2017","tournamentId":22,"tournamentRegionId":74,"tournamentRegionCode":"fr","regionCode":"br","tournamentName":"Ligue 1","tournamentShortName":"FL1","rating":7.444399999999999,"ranking":49,"apps":25,"subOn":4,"minsPlayed":1991,"manOfTheMatch":1,"yellowCard":5.0,"redCard":0.0,"goal":5,"assistTotal":1,"shotsPerGame":0.8,"aerialWonPerGame":1.16,"passSuccess":85.1492537313433},{"name":"Marco Verratti","firstName":"Marco","lastName":"Verratti","playerId":91961,"height":165,"weight":60,"age":24,"isManOfTheMatch":false,"isActive":true,"isOpta":true,"playedPositions":"-DMC-","positionText":"Midfielder","playedPositionsShort":"DMC","teamId":304,"teamName":"Paris Saint Germain","seasonId":6318,"seasonName":"2016/2017","tournamentId":22,"tournamentRegionId":74,"tournamentRegionCode":"fr","regionCode":"it","tournamentName":"Ligue 1","tournamentShortName":"FL1","rating":7.4394444444444456,"ranking":50,"apps":18,"subOn":3,"minsPlayed":1279,"manOfTheMatch":2,"yellowCard":4.0,"redCard":0.0,"goal":2,"assistTotal":3,"shotsPerGame":0.27777777777777779,"aerialWonPerGame":0.1111111111111111,"passSuccess":87.994722955145122}], "paging" : {  "currentPage" : 5,  "totalPages" : 145,  "resultsPerPage" : 10,  "totalResults" : 1448,  "firstRecordIndex" : 41,  "lastRecordIndex" : 50 }, "statColumns" : ["apps","subOn","minsPlayed","goal","assistTotal","yellowCard","redCard","shotsPerGame","passSuccess","aerialWonPerGame","manOfTheMatch"]} 