 {     "playerTableStats" : [{"name":"Federico Fazio","firstName":"Federico","lastName":"Fazio","playerId":29908,"height":195,"weight":85,"age":29,"isManOfTheMatch":false,"isActive":true,"isOpta":true,"playedPositions":"-DC-","positionText":"Defender","playedPositionsShort":"D(C)","teamId":84,"teamName":"Roma","seasonId":6461,"seasonName":"2016/2017","tournamentId":5,"tournamentRegionId":108,"tournamentRegionCode":"it","regionCode":"ar","tournamentName":"Serie A","tournamentShortName":"ISA","rating":7.5974999999999993,"ranking":21,"apps":24,"subOn":2,"minsPlayed":2016,"manOfTheMatch":4,"yellowCard":1.0,"redCard":0.0,"goal":1,"assistTotal":0,"shotsPerGame":0.45833333333333331,"aerialWonPerGame":3.375,"passSuccess":84.065460809646851},{"name":"Paulo Dybala","firstName":"Paulo","lastName":"Dybala","playerId":114863,"height":177,"weight":73,"age":23,"isManOfTheMatch":false,"isActive":true,"isOpta":true,"playedPositions":"-AMC-FW-","positionText":"Forward","playedPositionsShort":"AM(C),FW","teamId":87,"teamName":"Juventus","seasonId":6461,"seasonName":"2016/2017","tournamentId":5,"tournamentRegionId":108,"tournamentRegionCode":"it","regionCode":"ar","tournamentName":"Serie A","tournamentShortName":"ISA","rating":7.5611111111111109,"ranking":22,"apps":18,"subOn":2,"minsPlayed":1331,"manOfTheMatch":2,"yellowCard":1.0,"redCard":0.0,"goal":7,"assistTotal":4,"shotsPerGame":3.1111111111111112,"aerialWonPerGame":0.1111111111111111,"passSuccess":85.560675883256536},{"name":"Roberto Firmino","firstName":"Roberto Firmino","lastName":"Barbosa de Oliveira","playerId":96182,"height":181,"weight":76,"age":25,"isManOfTheMatch":false,"isActive":true,"isOpta":true,"playedPositions":"-FW-MC-ML-MR-","positionText":"Forward","playedPositionsShort":"M(CLR),FW","teamId":26,"teamName":"Liverpool","seasonId":6335,"seasonName":"2016/2017","tournamentId":2,"tournamentRegionId":252,"tournamentRegionCode":"gb-eng","regionCode":"br","tournamentName":"Premier League","tournamentShortName":"EPL","rating":7.5595833333333324,"ranking":23,"apps":24,"subOn":0,"minsPlayed":2136,"manOfTheMatch":3,"yellowCard":3.0,"redCard":0.0,"goal":8,"assistTotal":3,"shotsPerGame":3.125,"aerialWonPerGame":1.7916666666666667,"passSuccess":79.300827966881329},{"name":"Ricardo Pereira","firstName":"Ricardo Domingos","lastName":"Barbosa Pereira","playerId":120763,"height":175,"weight":70,"age":23,"isManOfTheMatch":false,"isActive":true,"isOpta":true,"playedPositions":"-DL-DR-MR-","positionText":"Defender","playedPositionsShort":"D(LR),M(R)","teamId":613,"teamName":"Nice","seasonId":6318,"seasonName":"2016/2017","tournamentId":22,"tournamentRegionId":74,"tournamentRegionCode":"fr","regionCode":"pt","tournamentName":"Ligue 1","tournamentShortName":"FL1","rating":7.55625,"ranking":24,"apps":16,"subOn":0,"minsPlayed":1440,"manOfTheMatch":3,"yellowCard":2.0,"redCard":0.0,"goal":1,"assistTotal":3,"shotsPerGame":0.5,"aerialWonPerGame":1.375,"passSuccess":87.382075471698116},{"name":"Loic Perrin","firstName":"Loic","lastName":"Perrin","playerId":13436,"height":181,"weight":80,"age":31,"isManOfTheMatch":false,"isActive":true,"isOpta":true,"playedPositions":"-DC-","positionText":"Defender","playedPositionsShort":"D(C)","teamId":145,"teamName":"Saint-Etienne","seasonId":6318,"seasonName":"2016/2017","tournamentId":22,"tournamentRegionId":74,"tournamentRegionCode":"fr","regionCode":"fr","tournamentName":"Ligue 1","tournamentShortName":"FL1","rating":7.5557894736842117,"ranking":25,"apps":19,"subOn":1,"minsPlayed":1557,"manOfTheMatch":2,"yellowCard":1.0,"redCard":0.0,"goal":3,"assistTotal":0,"shotsPerGame":0.73684210526315785,"aerialWonPerGame":2.7894736842105261,"passSuccess":88.509316770186331},{"name":"Robert Lewandowski","firstName":"Robert","lastName":"Lewandowski","playerId":29400,"height":185,"weight":79,"age":28,"isManOfTheMatch":false,"isActive":true,"isOpta":true,"playedPositions":"-FW-","positionText":"Forward","playedPositionsShort":"FW","teamId":37,"teamName":"Bayern Munich","seasonId":6392,"seasonName":"2016/2017","tournamentId":3,"tournamentRegionId":81,"tournamentRegionCode":"de","regionCode":"pl","tournamentName":"Bundesliga","tournamentShortName":"GB","rating":7.5514285714285716,"ranking":26,"apps":21,"subOn":2,"minsPlayed":1763,"manOfTheMatch":4,"yellowCard":3.0,"redCard":0.0,"goal":16,"assistTotal":2,"shotsPerGame":3.9047619047619047,"aerialWonPerGame":2.0476190476190474,"passSuccess":75.475687103594083},{"name":"Maxime Gonalons","firstName":"Maxime","lastName":"Gonalons","playerId":79560,"height":187,"weight":76,"age":27,"isManOfTheMatch":false,"isActive":true,"isOpta":true,"playedPositions":"-DC-MC-","positionText":"Midfielder","playedPositionsShort":"D(C),M(C)","teamId":228,"teamName":"Lyon","seasonId":6318,"seasonName":"2016/2017","tournamentId":22,"tournamentRegionId":74,"tournamentRegionCode":"fr","regionCode":"fr","tournamentName":"Ligue 1","tournamentShortName":"FL1","rating":7.5440000000000014,"ranking":27,"apps":20,"subOn":0,"minsPlayed":1736,"manOfTheMatch":2,"yellowCard":4.0,"redCard":1.0,"goal":1,"assistTotal":1,"shotsPerGame":0.7,"aerialWonPerGame":2.4,"passSuccess":90.545144804088579},{"name":"Mohamed Salah","firstName":"Mohamed","lastName":"Salah","playerId":108226,"height":175,"weight":72,"age":24,"isManOfTheMatch":false,"isActive":true,"isOpta":true,"playedPositions":"-AMC-AML-AMR-FW-","positionText":"Forward","playedPositionsShort":"AM(CLR),FW","teamId":84,"teamName":"Roma","seasonId":6461,"seasonName":"2016/2017","tournamentId":5,"tournamentRegionId":108,"tournamentRegionCode":"it","regionCode":"eg","tournamentName":"Serie A","tournamentShortName":"ISA","rating":7.5422222222222235,"ranking":28,"apps":18,"subOn":1,"minsPlayed":1455,"manOfTheMatch":3,"yellowCard":2.0,"redCard":0.0,"goal":9,"assistTotal":6,"shotsPerGame":2.5555555555555554,"aerialWonPerGame":0.33333333333333331,"passSuccess":78.807947019867555},{"name":"Dimitri Payet","firstName":"Dimitri","lastName":"Payet","playerId":14058,"height":175,"weight":77,"age":29,"isManOfTheMatch":false,"isActive":false,"isOpta":true,"playedPositions":"-MC-ML-MR-","positionText":"Midfielder","playedPositionsShort":"M(CLR)","teamId":29,"teamName":"West Ham","seasonId":6335,"seasonName":"2016/2017","tournamentId":2,"tournamentRegionId":252,"tournamentRegionCode":"gb-eng","regionCode":"fr","tournamentName":"Premier League","tournamentShortName":"EPL","rating":7.5377777777777784,"ranking":29,"apps":18,"subOn":1,"minsPlayed":1515,"manOfTheMatch":5,"yellowCard":2.0,"redCard":0.0,"goal":2,"assistTotal":6,"shotsPerGame":3.0555555555555554,"aerialWonPerGame":0.16666666666666666,"passSuccess":80.946123521682},{"name":"Kerem Demirbay","firstName":"Kerem","lastName":"Demirbay","playerId":115166,"height":182,"weight":72,"age":23,"isManOfTheMatch":false,"isActive":true,"isOpta":true,"playedPositions":"-AMC-","positionText":"Midfielder","playedPositionsShort":"AM(C)","teamId":1211,"teamName":"Hoffenheim","seasonId":6392,"seasonName":"2016/2017","tournamentId":3,"tournamentRegionId":81,"tournamentRegionCode":"de","regionCode":"de","tournamentName":"Bundesliga","tournamentShortName":"GB","rating":7.528125,"ranking":30,"apps":16,"subOn":1,"minsPlayed":1170,"manOfTheMatch":4,"yellowCard":3.0,"redCard":0.0,"goal":3,"assistTotal":5,"shotsPerGame":2.0625,"aerialWonPerGame":0.375,"passSuccess":78.130841121495337}], "paging" : {  "currentPage" : 3,  "totalPages" : 145,  "resultsPerPage" : 10,  "totalResults" : 1448,  "firstRecordIndex" : 21,  "lastRecordIndex" : 30 }, "statColumns" : ["apps","subOn","minsPlayed","goal","assistTotal","yellowCard","redCard","shotsPerGame","passSuccess","aerialWonPerGame","manOfTheMatch"]} 