 {     "playerTableStats" : [{"name":"Paul Baysse","firstName":"Paul","lastName":"Baysse","playerId":27756,"height":187,"weight":85,"age":28,"isManOfTheMatch":false,"isActive":true,"isOpta":true,"playedPositions":"-DC-DR-","positionText":"Defender","playedPositionsShort":"D(CR)","teamId":613,"teamName":"Nice","seasonId":6318,"seasonName":"2016/2017","tournamentId":22,"tournamentRegionId":74,"tournamentRegionCode":"fr","regionCode":"fr","tournamentName":"Ligue 1","tournamentShortName":"FL1","rating":7.3213333333333335,"ranking":91,"apps":15,"subOn":1,"minsPlayed":1272,"manOfTheMatch":0,"yellowCard":0.0,"redCard":0.0,"goal":2,"assistTotal":0,"shotsPerGame":0.66666666666666663,"aerialWonPerGame":3.2,"passSuccess":90.180586907449211},{"name":"Mehdi Abeid","firstName":"Mehdi","lastName":"Abeid","playerId":109526,"height":178,"weight":77,"age":24,"isManOfTheMatch":false,"isActive":true,"isOpta":true,"playedPositions":"-DMC-","positionText":"Midfielder","playedPositionsShort":"DMC","teamId":1364,"teamName":"Dijon","seasonId":6318,"seasonName":"2016/2017","tournamentId":22,"tournamentRegionId":74,"tournamentRegionCode":"fr","regionCode":"dz","tournamentName":"Ligue 1","tournamentShortName":"FL1","rating":7.32,"ranking":92,"apps":19,"subOn":1,"minsPlayed":1566,"manOfTheMatch":2,"yellowCard":4.0,"redCard":0.0,"goal":3,"assistTotal":2,"shotsPerGame":1.368421052631579,"aerialWonPerGame":1.0526315789473684,"passSuccess":84.928229665071768},{"name":"Radja Nainggolan","firstName":"Radja","lastName":"Nainggolan","playerId":52380,"height":176,"weight":65,"age":28,"isManOfTheMatch":false,"isActive":true,"isOpta":true,"playedPositions":"-MC-","positionText":"Midfielder","playedPositionsShort":"M(C)","teamId":84,"teamName":"Roma","seasonId":6461,"seasonName":"2016/2017","tournamentId":5,"tournamentRegionId":108,"tournamentRegionCode":"it","regionCode":"be","tournamentName":"Serie A","tournamentShortName":"ISA","rating":7.3145833333333323,"ranking":93,"apps":24,"subOn":1,"minsPlayed":1975,"manOfTheMatch":1,"yellowCard":2.0,"redCard":0.0,"goal":7,"assistTotal":2,"shotsPerGame":2.4583333333333335,"aerialWonPerGame":0.95833333333333337,"passSuccess":78.1183932346723},{"name":"Mousa Dembélé","firstName":"Mousa","lastName":"Dembélé","playerId":12187,"height":185,"weight":82,"age":29,"isManOfTheMatch":false,"isActive":true,"isOpta":true,"playedPositions":"-MC-MR-","positionText":"Midfielder","playedPositionsShort":"M(CR)","teamId":30,"teamName":"Tottenham","seasonId":6335,"seasonName":"2016/2017","tournamentId":2,"tournamentRegionId":252,"tournamentRegionCode":"gb-eng","regionCode":"be","tournamentName":"Premier League","tournamentShortName":"EPL","rating":7.3141176470588238,"ranking":94,"apps":17,"subOn":1,"minsPlayed":1306,"manOfTheMatch":2,"yellowCard":4.0,"redCard":0.0,"goal":0,"assistTotal":0,"shotsPerGame":0.58823529411764708,"aerialWonPerGame":0.76470588235294112,"passSuccess":91.621327529923832},{"name":"Wylan Cyprien","firstName":"Wylan","lastName":"Cyprien","playerId":123873,"height":180,"weight":75,"age":22,"isManOfTheMatch":false,"isActive":true,"isOpta":true,"playedPositions":"-AMC-","positionText":"Midfielder","playedPositionsShort":"AM(C)","teamId":613,"teamName":"Nice","seasonId":6318,"seasonName":"2016/2017","tournamentId":22,"tournamentRegionId":74,"tournamentRegionCode":"fr","regionCode":"fr","tournamentName":"Ligue 1","tournamentShortName":"FL1","rating":7.3138461538461534,"ranking":95,"apps":26,"subOn":2,"minsPlayed":2196,"manOfTheMatch":3,"yellowCard":1.0,"redCard":0.0,"goal":7,"assistTotal":3,"shotsPerGame":1.6923076923076923,"aerialWonPerGame":0.57692307692307687,"passSuccess":89.395546129374338},{"name":"Daley Blind","firstName":"Daley","lastName":"Blind","playerId":70033,"height":180,"weight":72,"age":26,"isManOfTheMatch":false,"isActive":true,"isOpta":true,"playedPositions":"-DC-DL-DMC-ML-","positionText":"Defender","playedPositionsShort":"D(CL),DMC,M(L)","teamId":32,"teamName":"Manchester United","seasonId":6335,"seasonName":"2016/2017","tournamentId":2,"tournamentRegionId":252,"tournamentRegionCode":"gb-eng","regionCode":"nl","tournamentName":"Premier League","tournamentShortName":"EPL","rating":7.3129411764705887,"ranking":96,"apps":17,"subOn":2,"minsPlayed":1395,"manOfTheMatch":0,"yellowCard":2.0,"redCard":0.0,"goal":1,"assistTotal":2,"shotsPerGame":0.47058823529411764,"aerialWonPerGame":1.2941176470588236,"passSuccess":86.469864698646987},{"name":"Jordan Henderson","firstName":"Jordan","lastName":"Henderson","playerId":68659,"height":182,"weight":67,"age":26,"isManOfTheMatch":false,"isActive":true,"isOpta":true,"playedPositions":"-MC-ML-MR-","positionText":"Midfielder","playedPositionsShort":"M(CLR)","teamId":26,"teamName":"Liverpool","seasonId":6335,"seasonName":"2016/2017","tournamentId":2,"tournamentRegionId":252,"tournamentRegionCode":"gb-eng","regionCode":"gb-eng","tournamentName":"Premier League","tournamentShortName":"EPL","rating":7.3095833333333333,"ranking":97,"apps":24,"subOn":0,"minsPlayed":2118,"manOfTheMatch":2,"yellowCard":8.0,"redCard":0.0,"goal":1,"assistTotal":4,"shotsPerGame":0.70833333333333337,"aerialWonPerGame":1.0833333333333333,"passSuccess":85.866925692083541},{"name":"James Milner","firstName":"James","lastName":"Milner","playerId":4511,"height":175,"weight":70,"age":31,"isManOfTheMatch":false,"isActive":true,"isOpta":true,"playedPositions":"-DL-MC-ML-MR-","positionText":"Defender","playedPositionsShort":"D(L),M(CLR)","teamId":26,"teamName":"Liverpool","seasonId":6335,"seasonName":"2016/2017","tournamentId":2,"tournamentRegionId":252,"tournamentRegionCode":"gb-eng","regionCode":"gb-eng","tournamentName":"Premier League","tournamentShortName":"EPL","rating":7.3086956521739141,"ranking":98,"apps":23,"subOn":0,"minsPlayed":2002,"manOfTheMatch":2,"yellowCard":5.0,"redCard":0.0,"goal":6,"assistTotal":3,"shotsPerGame":1.173913043478261,"aerialWonPerGame":1.7391304347826086,"passSuccess":80.973129992737839},{"name":"Idrissa Gueye","firstName":"Idrissa","lastName":"Gueye","playerId":80464,"height":174,"weight":66,"age":27,"isManOfTheMatch":false,"isActive":true,"isOpta":true,"playedPositions":"-MC-","positionText":"Midfielder","playedPositionsShort":"M(C)","teamId":31,"teamName":"Everton","seasonId":6335,"seasonName":"2016/2017","tournamentId":2,"tournamentRegionId":252,"tournamentRegionCode":"gb-eng","regionCode":"sn","tournamentName":"Premier League","tournamentShortName":"EPL","rating":7.3084999999999996,"ranking":99,"apps":20,"subOn":0,"minsPlayed":1730,"manOfTheMatch":1,"yellowCard":6.0,"redCard":0.0,"goal":0,"assistTotal":1,"shotsPerGame":0.7,"aerialWonPerGame":1.35,"passSuccess":85.1510067114094},{"name":"Steve Mounie","firstName":"Steve","lastName":"Mounie","playerId":135259,"height":190,"weight":83,"age":22,"isManOfTheMatch":false,"isActive":true,"isOpta":true,"playedPositions":"-FW-","positionText":"Forward","playedPositionsShort":"FW","teamId":311,"teamName":"Montpellier","seasonId":6318,"seasonName":"2016/2017","tournamentId":22,"tournamentRegionId":74,"tournamentRegionCode":"fr","regionCode":"fr","tournamentName":"Ligue 1","tournamentShortName":"FL1","rating":7.3052173913043479,"ranking":100,"apps":23,"subOn":2,"minsPlayed":1884,"manOfTheMatch":2,"yellowCard":3.0,"redCard":1.0,"goal":10,"assistTotal":2,"shotsPerGame":3.2173913043478262,"aerialWonPerGame":8.4347826086956523,"passSuccess":64.932885906040269}], "paging" : {  "currentPage" : 10,  "totalPages" : 145,  "resultsPerPage" : 10,  "totalResults" : 1448,  "firstRecordIndex" : 91,  "lastRecordIndex" : 100 }, "statColumns" : ["apps","subOn","minsPlayed","goal","assistTotal","yellowCard","redCard","shotsPerGame","passSuccess","aerialWonPerGame","manOfTheMatch"]} 