 {     "playerTableStats" : [{"name":"Filipe Luis","firstName":"Filipe Luis","lastName":"Kasmirski","playerId":22152,"height":182,"weight":73,"age":31,"isManOfTheMatch":false,"isActive":true,"isOpta":true,"playedPositions":"-DL-","positionText":"Defender","playedPositionsShort":"D(L)","teamId":63,"teamName":"Atletico Madrid","seasonId":6436,"seasonName":"2016/2017","tournamentId":4,"tournamentRegionId":206,"tournamentRegionCode":"es","regionCode":"br","tournamentName":"La Liga","tournamentShortName":"SLL","rating":7.5215000000000005,"ranking":31,"apps":20,"subOn":0,"minsPlayed":1800,"manOfTheMatch":2,"yellowCard":2.0,"redCard":0.0,"goal":0,"assistTotal":3,"shotsPerGame":0.45,"aerialWonPerGame":0.95,"passSuccess":83.449477351916386},{"name":"Zlatan Ibrahimovic","firstName":"Zlatan","lastName":"Ibrahimovic","playerId":3281,"height":195,"weight":95,"age":35,"isManOfTheMatch":false,"isActive":true,"isOpta":true,"playedPositions":"-FW-","positionText":"Forward","playedPositionsShort":"FW","teamId":32,"teamName":"Manchester United","seasonId":6335,"seasonName":"2016/2017","tournamentId":2,"tournamentRegionId":252,"tournamentRegionCode":"gb-eng","regionCode":"se","tournamentName":"Premier League","tournamentShortName":"EPL","rating":7.5170833333333329,"ranking":32,"apps":24,"subOn":0,"minsPlayed":2160,"manOfTheMatch":4,"yellowCard":5.0,"redCard":0.0,"goal":15,"assistTotal":4,"shotsPerGame":4.25,"aerialWonPerGame":3.0416666666666665,"passSuccess":73.712446351931334},{"name":"Gonzalo Higuaín","firstName":"Gonzalo","lastName":"Higuaín","playerId":19729,"height":184,"weight":87,"age":29,"isManOfTheMatch":false,"isActive":true,"isOpta":true,"playedPositions":"-FW-","positionText":"Forward","playedPositionsShort":"FW","teamId":87,"teamName":"Juventus","seasonId":6461,"seasonName":"2016/2017","tournamentId":5,"tournamentRegionId":108,"tournamentRegionCode":"it","regionCode":"ar","tournamentName":"Serie A","tournamentShortName":"ISA","rating":7.5132,"ranking":33,"apps":25,"subOn":5,"minsPlayed":1859,"manOfTheMatch":6,"yellowCard":0.0,"redCard":0.0,"goal":19,"assistTotal":2,"shotsPerGame":3.24,"aerialWonPerGame":0.52,"passSuccess":81.132075471698116},{"name":"Sadio Mané","firstName":"Sadio","lastName":"Mané","playerId":109915,"height":175,"weight":69,"age":24,"isManOfTheMatch":false,"isActive":true,"isOpta":true,"playedPositions":"-AMC-AML-AMR-","positionText":"Midfielder","playedPositionsShort":"AM(CLR)","teamId":26,"teamName":"Liverpool","seasonId":6335,"seasonName":"2016/2017","tournamentId":2,"tournamentRegionId":252,"tournamentRegionCode":"gb-eng","regionCode":"sn","tournamentName":"Premier League","tournamentShortName":"EPL","rating":7.5127272727272727,"ranking":34,"apps":22,"subOn":1,"minsPlayed":1855,"manOfTheMatch":2,"yellowCard":3.0,"redCard":0.0,"goal":11,"assistTotal":4,"shotsPerGame":2.2272727272727271,"aerialWonPerGame":1.2272727272727273,"passSuccess":78.910776361529543},{"name":"Giacomo Bonaventura","firstName":"Giacomo","lastName":"Bonaventura","playerId":40384,"height":181,"weight":75,"age":27,"isManOfTheMatch":false,"isActive":true,"isOpta":true,"playedPositions":"-AMC-AML-AMR-","positionText":"Midfielder","playedPositionsShort":"AM(CLR)","teamId":80,"teamName":"AC Milan","seasonId":6461,"seasonName":"2016/2017","tournamentId":5,"tournamentRegionId":108,"tournamentRegionCode":"it","regionCode":"it","tournamentName":"Serie A","tournamentShortName":"ISA","rating":7.5021052631578939,"ranking":35,"apps":19,"subOn":0,"minsPlayed":1574,"manOfTheMatch":1,"yellowCard":3.0,"redCard":0.0,"goal":3,"assistTotal":2,"shotsPerGame":2.4736842105263159,"aerialWonPerGame":0.52631578947368418,"passSuccess":85.3099730458221},{"name":"Miralem Pjanic","firstName":"Miralem","lastName":"Pjanic","playerId":30226,"height":180,"weight":70,"age":26,"isManOfTheMatch":false,"isActive":true,"isOpta":true,"playedPositions":"-MC-","positionText":"Midfielder","playedPositionsShort":"M(C)","teamId":87,"teamName":"Juventus","seasonId":6461,"seasonName":"2016/2017","tournamentId":5,"tournamentRegionId":108,"tournamentRegionCode":"it","regionCode":"ba","tournamentName":"Serie A","tournamentShortName":"ISA","rating":7.4957894736842112,"ranking":36,"apps":19,"subOn":3,"minsPlayed":1361,"manOfTheMatch":2,"yellowCard":3.0,"redCard":0.0,"goal":5,"assistTotal":5,"shotsPerGame":1.9473684210526316,"aerialWonPerGame":0.78947368421052633,"passSuccess":86.924686192468613},{"name":"Nicolás Otamendi","firstName":"Nicolás","lastName":"Otamendi","playerId":75691,"height":183,"weight":81,"age":29,"isManOfTheMatch":false,"isActive":true,"isOpta":true,"playedPositions":"-DC-","positionText":"Defender","playedPositionsShort":"D(C)","teamId":167,"teamName":"Manchester City","seasonId":6335,"seasonName":"2016/2017","tournamentId":2,"tournamentRegionId":252,"tournamentRegionCode":"gb-eng","regionCode":"ar","tournamentName":"Premier League","tournamentShortName":"EPL","rating":7.4925000000000015,"ranking":37,"apps":20,"subOn":1,"minsPlayed":1692,"manOfTheMatch":2,"yellowCard":8.0,"redCard":0.0,"goal":0,"assistTotal":1,"shotsPerGame":0.35,"aerialWonPerGame":4.25,"passSuccess":86.861924686192467},{"name":"Andy Carroll","firstName":"Andy","lastName":"Carroll","playerId":23383,"height":193,"weight":79,"age":28,"isManOfTheMatch":false,"isActive":true,"isOpta":true,"playedPositions":"-FW-","positionText":"Forward","playedPositionsShort":"FW","teamId":29,"teamName":"West Ham","seasonId":6335,"seasonName":"2016/2017","tournamentId":2,"tournamentRegionId":252,"tournamentRegionCode":"gb-eng","regionCode":"gb-eng","tournamentName":"Premier League","tournamentShortName":"EPL","rating":7.4925000000000006,"ranking":38,"apps":12,"subOn":3,"minsPlayed":800,"manOfTheMatch":2,"yellowCard":2.0,"redCard":0.0,"goal":6,"assistTotal":0,"shotsPerGame":2.1666666666666665,"aerialWonPerGame":9.1666666666666661,"passSuccess":56.25},{"name":"Hakan Calhanoglu","firstName":"Hakan","lastName":"Calhanoglu","playerId":110373,"height":178,"weight":76,"age":23,"isManOfTheMatch":false,"isActive":true,"isOpta":true,"playedPositions":"-FW-MC-ML-MR-","positionText":"Midfielder","playedPositionsShort":"M(CLR),FW","teamId":36,"teamName":"Bayer Leverkusen","seasonId":6392,"seasonName":"2016/2017","tournamentId":3,"tournamentRegionId":81,"tournamentRegionCode":"de","regionCode":"tr","tournamentName":"Bundesliga","tournamentShortName":"GB","rating":7.492,"ranking":39,"apps":15,"subOn":1,"minsPlayed":1217,"manOfTheMatch":3,"yellowCard":1.0,"redCard":0.0,"goal":6,"assistTotal":5,"shotsPerGame":3.1333333333333333,"aerialWonPerGame":1.6666666666666667,"passSuccess":77.590673575129529},{"name":"Naby Keita","firstName":"Naby","lastName":"Keita","playerId":243510,"height":172,"weight":64,"age":22,"isManOfTheMatch":false,"isActive":true,"isOpta":true,"playedPositions":"-MC-","positionText":"Midfielder","playedPositionsShort":"M(C)","teamId":7614,"teamName":"RasenBallsport Leipzig","seasonId":6392,"seasonName":"2016/2017","tournamentId":3,"tournamentRegionId":81,"tournamentRegionCode":"de","regionCode":"gn","tournamentName":"Bundesliga","tournamentShortName":"GB","rating":7.4915789473684216,"ranking":40,"apps":19,"subOn":2,"minsPlayed":1393,"manOfTheMatch":1,"yellowCard":3.0,"redCard":0.0,"goal":4,"assistTotal":5,"shotsPerGame":1.368421052631579,"aerialWonPerGame":0.47368421052631576,"passSuccess":79.468599033816417}], "paging" : {  "currentPage" : 4,  "totalPages" : 145,  "resultsPerPage" : 10,  "totalResults" : 1448,  "firstRecordIndex" : 31,  "lastRecordIndex" : 40 }, "statColumns" : ["apps","subOn","minsPlayed","goal","assistTotal","yellowCard","redCard","shotsPerGame","passSuccess","aerialWonPerGame","manOfTheMatch"]} 